{
	"AssetInfoVersion": 2,
	"ShaderCodeToAssets": [
		{
			"ShaderMapHash": "70A6F426054CE498855E44567B95D4F5A6EF06B8",
			"Assets": [
				"/ControlRig/Controls/ControlRigGizmoMaterial"
			]
		},
		{
			"ShaderMapHash": "8848E254F86BDF67FAF9814266026EBB3FF62B3C",
			"Assets": [
				"/Engine/EditorMaterials/PhAT_NoCollisionMaterial"
			]
		},
		{
			"ShaderMapHash": "450458DF7D6E94EADF8DF960BAFA09DD44A32FBB",
			"Assets": [
				"/Engine/EditorMaterials/PhAT_UnselectedMaterial"
			]
		},
		{
			"ShaderMapHash": "CF39C6CBBFF36974CD2D13A1DBC383564662B313",
			"Assets": [
				"/Engine/EngineDebugMaterials/DebugEditorMaterial"
			]
		},
		{
			"ShaderMapHash": "B8E69F9C45A1AAD73847FA15A4F4BC5517350BBD",
			"Assets": [
				"/VirtualProductionUtilities/2D/Materials/Bookmark/M_Metal",
				"/Game/VRTemplate/Materials/M_Projectile"
			]
		},
		{
			"ShaderMapHash": "3C4ED0E41F57BD7D024357D66F89B02BE6752B1D",
			"Assets": [
				"/AnimationSharing/AnimSharingBase"
			]
		},
		{
			"ShaderMapHash": "2D9435355F19F1B119293CFE90B0CD4C9EAC3531",
			"Assets": [
				"/VirtualProductionUtilities/Dolly/M_DollyVP"
			]
		},
		{
			"ShaderMapHash": "9BD30E03ACDD606786758B840C47C8BE0C6A285C",
			"Assets": [
				"/VirtualProductionUtilities/Editor/Meshes/M_ContentWindow"
			]
		},
		{
			"ShaderMapHash": "4E7CCBB42DE9A73F0FB9962AB1B8AE0B01264332",
			"Assets": [
				"/Engine/EngineMaterials/RemoveSurfaceMaterial",
				"/Interchange/Materials/UnlitMaterial"
			]
		},
		{
			"ShaderMapHash": "8718D4E29BB26C4D3D2B2B33A34A3434E097C6C4",
			"Assets": [
				"/Engine/VREditor/FloatingText/LineMaterial",
				"/VirtualProductionUtilities/2D/Materials/Controller/M_Picker",
				"/VirtualProductionUtilities/2D/Materials/UI/ContextMenu/M_Interactor_Cursor"
			]
		},
		{
			"ShaderMapHash": "E2D0D7A4866CE86CA31DD7C687F84A1FB11652A4",
			"Assets": [
				"/Engine/EngineDebugMaterials/M_SimpleOpaque",
				"/VirtualProductionUtilities/Bookmark/M_BookmarkVP",
				"/Engine/VREditor/TransformGizmo/Xray"
			]
		},
		{
			"ShaderMapHash": "932072C43EF2D809116B02553A8DB350E6DC1B69",
			"Assets": [
				"/VirtualProductionUtilities/3D/Viewfinder/M_Viewfinder_Frame"
			]
		},
		{
			"ShaderMapHash": "EE62C6EDDC4FF0A4D0955490FD35404722202BB5",
			"Assets": [
				"/MeshModelingToolset/Materials/M_DynamicMeshComponentVtxColor"
			]
		},
		{
			"ShaderMapHash": "A9DE12BD3DEAFF48AE9CA1902CCB9425B26A1B32",
			"Assets": [
				"/Engine/EngineDebugMaterials/DebugMeshMaterial"
			]
		},
		{
			"ShaderMapHash": "F635FABA01B71DACAEF811C80EA5F0A304EC0AD9",
			"Assets": [
				"/MovieRenderPipeline/Materials/MoviePipeline_StencilCutout"
			]
		},
		{
			"ShaderMapHash": "2993441997B96AFD477A0DB45C409BF3E2B448FF",
			"Assets": [
				"/Engine/EngineMaterials/GizmoMaterial"
			]
		},
		{
			"ShaderMapHash": "B9C84EB1770E1C7F85A2CA61655F8DF275A74C3E",
			"Assets": [
				"/Composure/Materials/ReplaceTonemapper/ComposureReplaceTonemapperByTexture"
			]
		},
		{
			"ShaderMapHash": "DCDD22E02006EAE0250632AC71E94EB1A3AE9E4C",
			"Assets": [
				"/Game/VRTemplate/Blueprints/Tools/particle/SpeakUp"
			]
		},
		{
			"ShaderMapHash": "FF51854B4904C1C26F1C9C4031703EAEFEAEFF2D",
			"Assets": [
				"/Game/VRTemplate/Blueprints/Tools/particle/LineFlash"
			]
		},
		{
			"ShaderMapHash": "B3768A48F0034D7F8552AD4AA8BB0F3CCE4CE29E",
			"Assets": [
				"/Interchange/Materials/PhongSurfaceMaterial"
			]
		},
		{
			"ShaderMapHash": "F949B7B6965DDA9203140F574DDB62700CCA25DF",
			"Assets": [
				"/Engine/EngineMaterials/DefaultPostProcessMaterial"
			]
		},
		{
			"ShaderMapHash": "DEF585059279814BE30E3CB2CA7AA1ED03879F26",
			"Assets": [
				"/Engine/EngineMaterials/DefaultDeferredDecalMaterial"
			]
		},
		{
			"ShaderMapHash": "8DE350BC489DD332E95D8155385FEF3632D7019B",
			"Assets": [
				"/MovieRenderPipeline/Materials/MovieRenderQueue_MotionVectors"
			]
		},
		{
			"ShaderMapHash": "EEDA7C52112B623F600CBF4EC0EEAF4DD3CCECF5",
			"Assets": [
				"/nDisplay/LightCard/M_UVIndicator"
			]
		},
		{
			"ShaderMapHash": "349609F54A48F6B101C5E7EBE453B255E9D52A32",
			"Assets": [
				"/MovieRenderPipeline/Materials/MovieRenderQueue_WorldDepth"
			]
		},
		{
			"ShaderMapHash": "C99682EB5D3442449FD14B6D30EB00697F5BF401",
			"Assets": [
				"/Engine/EditorMaterials/WorldPartition/WorldPartitionSpatialHashGridPreviewMaterial"
			]
		},
		{
			"ShaderMapHash": "5268D0EDB8A9ABD4E4FA55D75E5C6F49A38924F9",
			"Assets": [
				"/ControlRig/M_Manip"
			]
		},
		{
			"ShaderMapHash": "9868E38CEF5576D5110D993031CAB871FBA14199",
			"Assets": [
				"/nDisplay/Materials/Preview/M_ProjPolicyPreview"
			]
		},
		{
			"ShaderMapHash": "9175B3C2F23F98B5A585101291504B9E121416A3",
			"Assets": [
				"/VirtualProductionUtilities/2D/Materials/UI/Dynamic/MI/Temperature/M_GradientFade"
			]
		},
		{
			"ShaderMapHash": "B3D1FBE87C38C2AC3D5A9495E0746A6E17C20F14",
			"Assets": [
				"/Engine/EngineMaterials/FlattenMaterial_WS_Normal_VT"
			]
		},
		{
			"ShaderMapHash": "171F013BF69A3B06A416073C78B0A7950FF052B7",
			"Assets": [
				"/VirtualProductionUtilities/2D/Materials/UI/Dynamic/M/M_ProgressBar"
			]
		},
		{
			"ShaderMapHash": "5B04D6D1A16B34B59CC5FEFBD2988DD75D905D01",
			"Assets": [
				"/VirtualProductionUtilities/ScoutingFlare/M_PulsingFlare"
			]
		},
		{
			"ShaderMapHash": "3A89157022AEF29EC8DDB21CC78EB686BBE781EB",
			"Assets": [
				"/VirtualProductionUtilities/2D/Materials/UI/ContextMenu/MeasureTool/M_MeasurePanel"
			]
		},
		{
			"ShaderMapHash": "296D704DCD24C38E5D37D4B3C1C85E306A0089C3",
			"Assets": [
				"/Engine/VREditor/UI/M_ContentWindow"
			]
		},
		{
			"ShaderMapHash": "778EA6F53F0756AF2078A27DADA1A591899CF39C",
			"Assets": [
				"/Engine/BasicShapes/BasicShapeMaterial"
			]
		},
		{
			"ShaderMapHash": "89EF35D28D322F170C21A7223F7F5DB995681150",
			"Assets": [
				"/Engine/EngineMeshes/BackgroundMaterial"
			]
		},
		{
			"ShaderMapHash": "A16BDD476C78071E48AC6B16F53C6915BC85FF78",
			"Assets": [
				"/Game/VRTemplate/Materials/M_VRCursor"
			]
		},
		{
			"ShaderMapHash": "26C9EC20D8F6BD6FE3D9A35D43D10C43C50F2C50",
			"Assets": [
				"/Engine/EditorMeshes/ColorCalibrator/M_GreyBall"
			]
		},
		{
			"ShaderMapHash": "5F1C12F2B2B6CD7D340A8B2C1EABEE366FE561BE",
			"Assets": [
				"/Engine/VREditor/TransformGizmo/TranslucentTransformGizmoMaterial"
			]
		},
		{
			"ShaderMapHash": "DE9E0A32E15E7FC8900026C26F4B6CB5863A653B",
			"Assets": [
				"/Engine/EditorLandscapeResources/SplineEditorMeshMat"
			]
		},
		{
			"ShaderMapHash": "FC8ED824BC33F2FCEE2C306070683D8F3C60BE9F",
			"Assets": [
				"/nDisplay/TestPatterns/Animated/M_TPAMirroredChevron"
			]
		},
		{
			"ShaderMapHash": "9300174A9B713D70D61576181703FC081D2747D1",
			"Assets": [
				"/nDisplay/TestPatterns/Animated/M_TPAGrid"
			]
		},
		{
			"ShaderMapHash": "8D319FFC87C745DDF2278576286FBCB543AB287D",
			"Assets": [
				"/Composure/Materials/ReplaceTonemapper/ComposureReplaceTonemapperComposeBloom"
			]
		},
		{
			"ShaderMapHash": "AF529D10E71FEC7E48BE7809114E0D8EE2AC6191",
			"Assets": [
				"/Composure/Materials/Compositing/M_AlphaScale"
			]
		},
		{
			"ShaderMapHash": "54FC50B77946FD978F5A7EFF3E8A0A0C80FCC327",
			"Assets": [
				"/Composure/Materials/PassSetup/ComposureSimpleSetupMaterial"
			]
		},
		{
			"ShaderMapHash": "AE8581ACDC2EB7EB3C2EE0A9042ACC6F5F6BB6FD",
			"Assets": [
				"/Composure/Materials/PassSetup/ComposureBeforeTranslucencySetBlack"
			]
		},
		{
			"ShaderMapHash": "C910D4AA2CECC280AF1C8603FD930EB12CB294DD",
			"Assets": [
				"/ControlRig/Controls/ControlRigXRayMaterial"
			]
		},
		{
			"ShaderMapHash": "F10A96B5F225149E146A2BD072D5539EEDBAF172",
			"Assets": [
				"/nDisplay/TestPatterns/Animated/M_TPAStrips"
			]
		},
		{
			"ShaderMapHash": "DDF9168D1A8439510DFCF176951134F3AAE2129C",
			"Assets": [
				"/nDisplay/TestPatterns/Animated/M_TPARadar"
			]
		},
		{
			"ShaderMapHash": "2CB2DB57AABE8BF03685CDA47FB834B459B40A47",
			"Assets": [
				"/nDisplay/TestPatterns/Animated/M_TPAChevron"
			]
		},
		{
			"ShaderMapHash": "8592706A306352EAABD63D7337EE0BAE8B95EFC3",
			"Assets": [
				"/nDisplay/TestPatterns/Statics/M_TPSGridCircles"
			]
		},
		{
			"ShaderMapHash": "ADEDA74E6D1803895357DC5FF05B6E7F0EC57B4E",
			"Assets": [
				"/nDisplay/TestPatterns/Statics/M_TPSGrayBars"
			]
		},
		{
			"ShaderMapHash": "1C85A9CB2F97A314EC1F9A985CC58FB7AEFADB83",
			"Assets": [
				"/nDisplay/TestPatterns/Statics/M_TPSColoredBars"
			]
		},
		{
			"ShaderMapHash": "424C8261C569FFC40A6800A54802E3F09C028455",
			"Assets": [
				"/nDisplay/TestPatterns/Statics/M_TPSCircles"
			]
		},
		{
			"ShaderMapHash": "9D52110430CFF2BFCE713744FC0C14183ED59983",
			"Assets": [
				"/ColorCorrectRegions/Materials/M_ColorCorrectRegionTransparentPreview"
			]
		},
		{
			"ShaderMapHash": "D84BDE69F4DFD9BFC00DBE4F49AC4E0650B7E4FD",
			"Assets": [
				"/Engine/EngineDebugMaterials/M_SimpleUnlitTranslucent"
			]
		},
		{
			"ShaderMapHash": "957385DB46FCED3617BC4641C5D006CD0B19BF84",
			"Assets": [
				"/Engine/EditorMaterials/Camera/CineMat"
			]
		},
		{
			"ShaderMapHash": "CF46F9EFD549E5FCDFFB569DF5A11CA1B5D83238",
			"Assets": [
				"/Engine/VREditor/TransformGizmo/Main"
			]
		},
		{
			"ShaderMapHash": "CC2F64CC91301E84C6D1B6D61E2F293B0D6785A0",
			"Assets": [
				"/Engine/EngineMaterials/DefaultLightFunctionMaterial"
			]
		},
		{
			"ShaderMapHash": "0F34114F7841D071537DAA2C278C1998F8E993FB",
			"Assets": [
				"/Game/VRTemplate/Blueprints/Tools/3D_Letters/SUPERTOOL/Black"
			]
		},
		{
			"ShaderMapHash": "413482531BB1A2D539897205FA525DB7FB40ADB1",
			"Assets": [
				"/MeshModelingToolsetExp/Materials/GizmoDefaultMaterial"
			]
		},
		{
			"ShaderMapHash": "630464D65F2BD7D653D6F14ED98137F0AE196A56",
			"Assets": [
				"/Game/VRTemplate/Materials/DefaultRibbonMaterial_NoGradient"
			]
		},
		{
			"ShaderMapHash": "E97F5770497832A628D4D646756F698B44B03724",
			"Assets": [
				"/Game/VRTemplate/Blueprints/Tools/particle/material/Paint"
			]
		},
		{
			"ShaderMapHash": "95D734B38880B48B6F96A88A468ED2AFFE8C9B1D",
			"Assets": [
				"/Niagara/DefaultAssets/DefaultSpriteMaterial"
			]
		},
		{
			"ShaderMapHash": "10C364FCF5535EF8EEEDCE9B6A578C1246820F1D",
			"Assets": [
				"/Engine/VREditor/Devices/Generic/GenericHMDMaterial"
			]
		},
		{
			"ShaderMapHash": "E7B7D97CB4859263FCF0FD80E4833970763BBABD",
			"Assets": [
				"/VirtualProductionUtilities/VR/Textures/IconFlyingMode_Mat"
			]
		},
		{
			"ShaderMapHash": "F6C6D1ABF0C1310CAB78C9265894D04E1C0EAEA8",
			"Assets": [
				"/VirtualProductionUtilities/2D/Materials/UI/Icons/Camera/M_Camera",
				"/VirtualProductionUtilities/2D/Materials/UI/Icons/Flag/M_Flag",
				"/VirtualProductionUtilities/2D/Materials/UI/Icons/User/M_User"
			]
		},
		{
			"ShaderMapHash": "F884BEE9EE49302A32DF4882B6EBB1F84BDFCA42",
			"Assets": [
				"/VirtualProductionUtilities/2D/Materials/Tools/Tripod/M_Tripod",
				"/VirtualProductionUtilities/2D/Materials/Tools/Handheld/M_Handheld"
			]
		},
		{
			"ShaderMapHash": "F101B9BD8CF98310BD3019ABDA84B4CC0D079421",
			"Assets": [
				"/Engine/VREditor/Fonts/VRTextMaterial"
			]
		},
		{
			"ShaderMapHash": "819F7C548667E8FBFC99184DD6B3E823979BDBEE",
			"Assets": [
				"/VirtualProductionUtilities/2D/Materials/UI/Icons/Marker/M_Marker"
			]
		},
		{
			"ShaderMapHash": "5DA358355D339FB918C42C3DB7381267C56C6E84",
			"Assets": [
				"/VirtualProductionUtilities/2D/Materials/Controller/M_Controller_ColorWheel_RiftS"
			]
		},
		{
			"ShaderMapHash": "2A805519D29697F12017AB46F3A98B69ADD000C6",
			"Assets": [
				"/VirtualProductionUtilities/2D/Materials/Controller/M_Controller_Body_Rift",
				"/VirtualProductionUtilities/2D/Materials/Controller/MI_Controller_Body_Rift"
			]
		},
		{
			"ShaderMapHash": "E6FFA5B2A3B31E9FB12431767AEE3B0FBF70FD4E",
			"Assets": [
				"/VirtualProductionUtilities/2D/Materials/Controller/M_SettingsButton"
			]
		},
		{
			"ShaderMapHash": "4141759893BABA3CB295D0A48ADB97333EC180E7",
			"Assets": [
				"/VirtualProductionUtilities/2D/Materials/Controller/M_Controller_Touchpad"
			]
		},
		{
			"ShaderMapHash": "82FDB3B9DE80A01DC1D9EDC2F3EE82F2A8017FB7",
			"Assets": [
				"/VirtualProductionUtilities/2D/Materials/Controller/M_Controller_Indicator"
			]
		},
		{
			"ShaderMapHash": "44DB2DC12D756C16AAD1ABAF99B7E8635752F0F2",
			"Assets": [
				"/VirtualProductionUtilities/2D/Materials/Bookmark/M_Bookmark_MeasureSource",
				"/VirtualProductionUtilities/2D/Materials/Bookmark/M_Bookmark_Light"
			]
		},
		{
			"ShaderMapHash": "CA98BA44763823848717F5354BEEEFCCE4400930",
			"Assets": [
				"/VirtualProductionUtilities/2D/Materials/Controller/M_Controller_Buttons"
			]
		},
		{
			"ShaderMapHash": "B8D5B70AF562AF32DFB1C4B93E353CE5D0EF3C77",
			"Assets": [
				"/VirtualProductionUtilities/2D/Materials/Tools/Marker/M_Erasor"
			]
		},
		{
			"ShaderMapHash": "8CC16EADD7B5527C812C14FF4D6586627CC8A81D",
			"Assets": [
				"/VirtualProductionUtilities/3D/Viewfinder/M_Viewfinder_InfoBG"
			]
		},
		{
			"ShaderMapHash": "82CEF970B81435CA5B8A0F475D41CD50227938E0",
			"Assets": [
				"/VirtualProductionUtilities/LineRenderer/Materials/Mat_Beam"
			]
		},
		{
			"ShaderMapHash": "1449DDE965ED1C62373B0AA3EADEA0D946B2E4C8",
			"Assets": [
				"/VirtualProductionUtilities/2D/Materials/HelpSystem/M_Unlit"
			]
		},
		{
			"ShaderMapHash": "D386B436A05D4E31E564E9DA494ADE9300DE1C76",
			"Assets": [
				"/VirtualProductionUtilities/Materials/VpRenderTextureMaterial"
			]
		},
		{
			"ShaderMapHash": "A00CB016ECD6B26A9459E6FBE0D612D1D92F5A8C",
			"Assets": [
				"/Engine/EngineMaterials/FlattenMaterial_VT",
				"/Engine/EngineMaterials/FlattenMaterial"
			]
		},
		{
			"ShaderMapHash": "A88FA2356B4108703CD09FDE7DF43ABC14D0DDB6",
			"Assets": [
				"/Engine/EngineMaterials/M_InvalidLightmapSettings"
			]
		},
		{
			"ShaderMapHash": "46F6B7F167FA0BB0322E85AD3CFB898CC81BD7BF",
			"Assets": [
				"/Engine/EngineMaterials/EmissiveMeshMaterial"
			]
		},
		{
			"ShaderMapHash": "0D9ED8A4ED545A207265259A3DC5F02B3F84AE30",
			"Assets": [
				"/MovieRenderPipeline/Blueprints/M_MoviePipelineRenderPreview"
			]
		},
		{
			"ShaderMapHash": "EC03FE51E35713C763D40A90DEE596789F94972A",
			"Assets": [
				"/Composure/Materials/ChromaKeying/M_SinglePassDespill"
			]
		},
		{
			"ShaderMapHash": "1E6219CC2469BF870EC772687729259D802663FD",
			"Assets": [
				"/Composure/Materials/Media/M_StaticVideoPlateDebug"
			]
		},
		{
			"ShaderMapHash": "E210959FE20BFC79C8E8D621B8B41710B25A58F8",
			"Assets": [
				"/Composure/Materials/Media/M_VideoPlateDefault"
			]
		},
		{
			"ShaderMapHash": "D3D12D87A613CCC23D9E1B69E1B46EFB3468417E",
			"Assets": [
				"/Paper2D/DefaultSpriteMaterial"
			]
		},
		{
			"ShaderMapHash": "69AF50478A9684F1FD2B916DC6E7079669E97DD2",
			"Assets": [
				"/Engine/EngineMaterials/PhAT_JointLimitMaterial"
			]
		},
		{
			"ShaderMapHash": "D44C0DFBEB8C54AD79E0C8EA7A41799FB3CA8BF6",
			"Assets": [
				"/nDisplay/LightCard/M_LightCard"
			]
		},
		{
			"ShaderMapHash": "F3E01C01909FF03EA40FCB038561CCCBCC437CE4",
			"Assets": [
				"/Engine/EngineDebugMaterials/M_VolumeRenderSphereTracePP"
			]
		},
		{
			"ShaderMapHash": "4F4CE32094DDA4F3D1E3922AFBB5D5DA7834BDC7",
			"Assets": [
				"/Engine/VREditor/LaserPointer/LaserPointerMaterial"
			]
		},
		{
			"ShaderMapHash": "8480A83A1FC5F38B5677A46AD4CC41CD13AE94F7",
			"Assets": [
				"/Engine/VREditor/TransformGizmo/TransformGizmoMaterial"
			]
		},
		{
			"ShaderMapHash": "BF11270476C61730E158C825EE3F1759710274C7",
			"Assets": [
				"/OpenXR/Devices/M_XRController"
			]
		},
		{
			"ShaderMapHash": "7612411B4C9208800694F7A7BAD885E562BDFBB0",
			"Assets": [
				"/VirtualProductionUtilities/Materials/WidgetPostProcessMaterial"
			]
		},
		{
			"ShaderMapHash": "63911AB0564DC598F3A264C3A64BB4460E614B6B",
			"Assets": [
				"/Engine/EngineMaterials/Widget3DPassThrough",
				"/Engine/EngineMaterials/Widget3DPassThrough_Translucent_OneSided"
			]
		},
		{
			"ShaderMapHash": "4984348D60C4BBFB748D23B17A3C07C977BFCC0B",
			"Assets": [
				"/VirtualProductionUtilities/2D/Materials/Tools/Gaffer/M_Gaffer"
			]
		},
		{
			"ShaderMapHash": "E0A51154AA2BB9F9BE434FE0911D19A7C6FF7C32",
			"Assets": [
				"/Engine/EngineSky/VolumetricClouds/m_SimpleVolumetricCloud"
			]
		},
		{
			"ShaderMapHash": "2401F3295550844886128CFA1FA45C4738B018BF",
			"Assets": [
				"/Engine/EngineMaterials/DefaultMaterial"
			]
		},
		{
			"ShaderMapHash": "D8F586A1E42C9D81D88C2A661519B89C36CB3601",
			"Assets": [
				"/Engine/EngineMaterials/WorldGridMaterial"
			]
		},
		{
			"ShaderMapHash": "2DBF0C36C3D16CF7AEE639CE0879EC94D0431D53",
			"Assets": [
				"/VirtualProductionUtilities/Materials/M_UnlitText"
			]
		},
		{
			"ShaderMapHash": "4B4786C867097E11F0757A667FEF18D1E498BEB0",
			"Assets": [
				"/Engine/EngineMaterials/DefaultTextMaterialOpaque"
			]
		},
		{
			"ShaderMapHash": "718CB8650D6B59AE53EC8BB38E5B2A7DA0C48840",
			"Assets": [
				"/Engine/EditorMaterials/PreviewShadowIndicatorMaterial"
			]
		},
		{
			"ShaderMapHash": "012C97D1BACCB6E15743FFFA4DF36DA478BB26A4",
			"Assets": [
				"/Game/VRTemplate/Blueprints/Tools/particle/Pink_PAINTING"
			]
		},
		{
			"ShaderMapHash": "DFF4C28E6D0725952D2EFC0B5DB8C9B6207E10EA",
			"Assets": [
				"/Game/VRTemplate/Blueprints/Tools/particle/Paint_Ductus"
			]
		},
		{
			"ShaderMapHash": "60C4ECE28782D5878F30B26887AE7C700BD497B5",
			"Assets": [
				"/Game/VRTemplate/Blueprints/Tools/particle/Move_LIGHTING"
			]
		},
		{
			"ShaderMapHash": "E60F9A2C007B3F03D4997B795EBAE2AF2862AAD6",
			"Assets": [
				"/Game/VRTemplate/Blueprints/Tools/particle/Paint_Calam"
			]
		},
		{
			"ShaderMapHash": "B27F5C08EA6FC86E846483B8ACFC77E473023277",
			"Assets": [
				"/VirtualProductionUtilities/2D/Materials/Controller/M_Controller_Body",
				"/VirtualProductionUtilities/2D/Materials/Controller/MI_Controller_Body"
			]
		},
		{
			"ShaderMapHash": "1FFFD155F304EC24379F63EC73FB1BAC6BD9FB36",
			"Assets": [
				"/VirtualProductionUtilities/Materials/MarkerColorMaterial"
			]
		},
		{
			"ShaderMapHash": "4CE41E6A01B29DF975933B33679D902C8AFA84FD",
			"Assets": [
				"/Game/VRTemplate/Materials/plane"
			]
		},
		{
			"ShaderMapHash": "B8E43F71470D4EB057E45E5375E0B0ABA7301E27",
			"Assets": [
				"/Engine/EngineSky/M_Sky_Panning_Clouds2"
			]
		},
		{
			"ShaderMapHash": "529881A919D3E3D6F7CAD089E95D0B7EC83CE8BA",
			"Assets": [
				"/Game/StarterContent/Materials/M_Brick_Clay_New"
			]
		},
		{
			"ShaderMapHash": "C20635FA850EDDBEB837ECE1C8E61DF430DA13D1",
			"Assets": [
				"/Game/VRTemplate/Blueprints/Tools/particle/SUPERTOOL"
			]
		},
		{
			"ShaderMapHash": "9EA6F210CD294EF7715C67E8FC72EB8E9A575BD2",
			"Assets": [
				"/Game/VRTemplate/Blueprints/Tools/particle/Paint_Black_Drag_High"
			]
		},
		{
			"ShaderMapHash": "D3A676B6595FA20BAF083A29AC2C948EB1CD3550",
			"Assets": [
				"/Game/VRTemplate/Blueprints/Tools/particle/Wave"
			]
		},
		{
			"ShaderMapHash": "AE901DEA299622EBFD6C96EBE0D56F0F13431EDC",
			"Assets": [
				"/Game/VRTemplate/Blueprints/Tools/particle/Waving_paint"
			]
		},
		{
			"ShaderMapHash": "7AF91F34D48DDCCFD100D9AAFEDA7FFA445AC59E",
			"Assets": [
				"/Game/VRTemplate/Blueprints/Tools/particle/WeirdShape"
			]
		},
		{
			"ShaderMapHash": "9B79D6E07424FC5448647D77A298107875052262",
			"Assets": [
				"/Game/VRTemplate/Blueprints/Tools/particle/WeirderShape"
			]
		},
		{
			"ShaderMapHash": "C4C50F7C34AEE4CAEDEBA045D941C3EF69CD0CA3",
			"Assets": [
				"/VirtualProductionUtilities/Materials/MI_SnapshotScreen"
			]
		},
		{
			"ShaderMapHash": "183920F8234BCFDC7034DB2A2BDCA708AB814E83",
			"Assets": [
				"/Engine/EngineMaterials/Widget3DPassThrough_Masked"
			]
		},
		{
			"ShaderMapHash": "85DDD8D40B5BBA52DDC99CCBC9CD48DD376B1A5E",
			"Assets": [
				"/Engine/EngineMaterials/Widget3DPassThrough_Opaque"
			]
		},
		{
			"ShaderMapHash": "4F624AAC2B827990E4570B881F152E6F12FA356B",
			"Assets": [
				"/Engine/EngineMaterials/Widget3DPassThrough_Translucent"
			]
		},
		{
			"ShaderMapHash": "0F802B7A13F417271A4085E3C48F88E96F6E70DF",
			"Assets": [
				"/Paper2D/OpaqueUnlitSpriteMaterial"
			]
		},
		{
			"ShaderMapHash": "1D876A65B6B21A265DDC44B817131BF46B9A1FCA",
			"Assets": [
				"/SpeedTreeImporter/SpeedTree9/SpeedTreeBillboardMaster"
			]
		},
		{
			"ShaderMapHash": "E0D2B01A1424CBE3735584674956F32705C4713D",
			"Assets": [
				"/SpeedTreeImporter/SpeedTree9/SpeedTreeMaster"
			]
		},
		{
			"ShaderMapHash": "75423765CDB38E3CB9CD0B67B10987101195DE38",
			"Assets": [
				"/OpenXR/Devices/OculusTouch_v3/MI_OculusTouch_v3",
				"/OpenXR/Devices/OculusTouch_v2/MI_OculusTouch_v2",
				"/OpenXR/Devices/ValveIndex/Left/MI_left_ValveIndex",
				"/OpenXR/Devices/OculusTouch/MI_OculusTouch",
				"/OpenXR/Devices/MicrosoftMixedReality/MI_MicrosoftMixedReality"
			]
		},
		{
			"ShaderMapHash": "56B2898B70A575443526A9190DB2C7095190B8B1",
			"Assets": [
				"/OpenXR/Devices/ValveIndex/Right/MI_right_ValveIndex"
			]
		},
		{
			"ShaderMapHash": "C9FA4633571CD09846617B87C5ACB621F1F09010",
			"Assets": [
				"/Composure/Materials/ChromaKeying/M_SinglePassChromaKeyer"
			]
		},
		{
			"ShaderMapHash": "D9D7860C86C6E5ADAC1BB7EAC63A79ABCB0BFCD5",
			"Assets": [
				"/Game/FirstPersonArms/Character/Materials/M_UE4Man_Body"
			]
		},
		{
			"ShaderMapHash": "DA6139ED27023FA9C808B05AA9E83F03834C66F2",
			"Assets": [
				"/Interchange/Materials/LambertSurfaceMaterial"
			]
		},
		{
			"ShaderMapHash": "B5F33508D21288D89A25B81B41386569016B179A",
			"Assets": [
				"/VirtualProductionUtilities/2D/Materials/UI/Dynamic/M/M_RoundBorders"
			]
		},
		{
			"ShaderMapHash": "D2ABFF79E78D44E3E44DFA0FADC17526C6E0DBF8",
			"Assets": [
				"/Interchange/Materials/OrenNayerMaterial"
			]
		},
		{
			"ShaderMapHash": "5BD535D4E7A720304DE9840FE0A56F0121D689C7",
			"Assets": [
				"/Engine/VREditor/LaserPointer/TranslucentLaserPointerMaterialInst"
			]
		},
		{
			"ShaderMapHash": "78A1D31D32DFB218920B9A8B47532FD28BD06B3C",
			"Assets": [
				"/VirtualProductionUtilities/Bookmark/CameraFacingTextMaterial"
			]
		},
		{
			"ShaderMapHash": "080CE05C0BD10DE35C43F59BD7C53899AF3599F2",
			"Assets": [
				"/Game/FPWeapon/Materials/M_FPGun"
			]
		},
		{
			"ShaderMapHash": "18877B7BBAA4D0BF71252999D16B68C9315F84FC",
			"Assets": [
				"/Game/VRTemplate/Materials/M_TeleportNoise"
			]
		},
		{
			"ShaderMapHash": "3AE7983D2C204F7D7B8032334F46516479AF6D49",
			"Assets": [
				"/Game/VRTemplate/Materials/M_TeleportCylinder"
			]
		},
		{
			"ShaderMapHash": "3ABA6C9FE734327416DAC56E68753E508A1CC4BF",
			"Assets": [
				"/VirtualProductionUtilities/2D/Materials/UI/Dynamic/MI/Timeline/MI_UI_TimelineThumb_Hovered",
				"/VirtualProductionUtilities/2D/Materials/UI/Dynamic/MI/Switches/MI_UI_Switch_B",
				"/VirtualProductionUtilities/2D/Materials/UI/Dynamic/MI/Switches/MI_UI_Knob",
				"/VirtualProductionUtilities/2D/Materials/UI/Dynamic/MI/ColorPicker/MI_UI_ColorSliderKnob",
				"/VirtualProductionUtilities/2D/Materials/UI/Dynamic/MI/TabButton/MI_UI_TabButton_Pressed",
				"/VirtualProductionUtilities/2D/Materials/UI/Dynamic/MI/Switches/MI_UI_SwitchButton_Normal",
				"/VirtualProductionUtilities/2D/Materials/UI/Dynamic/MI/ColorPicker/MI_UI_ColorSliderKnob_Hovered",
				"/VirtualProductionUtilities/2D/Materials/UI/Dynamic/MI/SettingsBG/MI_UI_Settings_Panel_Overlay",
				"/VirtualProductionUtilities/2D/Materials/UI/Dynamic/MI/SettingsBG/MI_UI_Settings_BG",
				"/VirtualProductionUtilities/2D/Materials/UI/Dynamic/MI/SettingsBG/MI_UI_Settings_BG_TopBottom",
				"/VirtualProductionUtilities/2D/Materials/UI/Dynamic/MI/TabButton/MI_UI_TabButton_Normal",
				"/VirtualProductionUtilities/2D/Materials/UI/Dynamic/MI/TabButton/MI_UI_TabButton_Hovered",
				"/VirtualProductionUtilities/2D/Materials/UI/Dynamic/MI/ScrollBar/MI_UI_ScrollBar_Dragged",
				"/VirtualProductionUtilities/2D/Materials/UI/Dynamic/MI/ScrollBar/MI_UI_ScrollBar_Hovered",
				"/VirtualProductionUtilities/2D/Materials/UI/Dynamic/MI/Context/MI_UI_MenuStatic_Context",
				"/VirtualProductionUtilities/2D/Materials/UI/Dynamic/MI/Timeline/MI_UI_TimelineThumb_Normal",
				"/VirtualProductionUtilities/2D/Materials/UI/Dynamic/MI/ActionButton/Negative/MI_UI_Action_Negative",
				"/VirtualProductionUtilities/2D/Materials/UI/Dynamic/MI/ActionButton/Affirmative/MI_UI_Action_Affirmative",
				"/VirtualProductionUtilities/2D/Materials/UI/Dynamic/MI/Switches/MI_UI_Switch_BG_Squared"
			]
		},
		{
			"ShaderMapHash": "1324F98E5DF4AB22AB5D1EB2FF026047BC866BB3",
			"Assets": [
				"/VirtualProductionUtilities/2D/Materials/UI/Dynamic/MI/SettingsBG/MI_UI_Settings_Panel",
				"/VirtualProductionUtilities/2D/Materials/UI/Dynamic/MI/Switches/MI_UI_SwitchButton_Hovered",
				"/VirtualProductionUtilities/2D/Materials/UI/Dynamic/MI/Timeline/MainMenu/MI_UI_TimelineThumb",
				"/VirtualProductionUtilities/2D/Materials/UI/Dynamic/MI/SettingsButton/MI_UI_Settings_Pressed",
				"/VirtualProductionUtilities/2D/Materials/UI/Dynamic/MI/SettingsButton/MI_UI_Settings_Normal",
				"/VirtualProductionUtilities/2D/Materials/UI/Dynamic/MI/SettingsButton/MI_UI_Settings_Hovered",
				"/VirtualProductionUtilities/2D/Materials/UI/Dynamic/MI/SecondaryButton/MI_UI_MenuSecondary_Pressed",
				"/VirtualProductionUtilities/2D/Materials/UI/Dynamic/MI/SecondaryButton/MI_UI_MenuSecondary_Hovered",
				"/VirtualProductionUtilities/2D/Materials/UI/Dynamic/MI/SecondaryButton/MI_UI_MenuSecondary",
				"/VirtualProductionUtilities/2D/Materials/UI/Dynamic/MI/Temperature/MI_UI_TemperatureHighlight",
				"/VirtualProductionUtilities/2D/Materials/UI/Dynamic/MI/MenuButton/MI_UI_UndoRedo_Pressed",
				"/VirtualProductionUtilities/2D/Materials/UI/Dynamic/MI/Temperature/MI_UI_ExposureHighlight",
				"/VirtualProductionUtilities/2D/Materials/UI/Dynamic/MI/MenuButton/MI_UI_UndoRedo_Normal",
				"/VirtualProductionUtilities/2D/Materials/UI/Dynamic/MI/MenuButton/MI_UI_MenuButton_Hovered",
				"/VirtualProductionUtilities/2D/Materials/UI/Dynamic/MI/MenuButton/MI_UI_UndoRedo_Hovered",
				"/VirtualProductionUtilities/2D/Materials/UI/Dynamic/MI/ScrollBar/MI_UI_ScrollBar_Normal",
				"/VirtualProductionUtilities/2D/Materials/UI/Dynamic/MI/Users/MI_UI_MenuStatic_Users",
				"/VirtualProductionUtilities/2D/Materials/UI/Dynamic/MI/MenuButton/MI_UI_MenuButton_Pressed",
				"/VirtualProductionUtilities/2D/Materials/UI/Dynamic/MI/MenuButton/MI_UI_MenuButton_Normal"
			]
		},
		{
			"ShaderMapHash": "34A11B4E96C0A26CC6F62FF8EB693F8105F6DD11",
			"Assets": [
				"/Engine/EngineMaterials/Widget3DPassThrough_Masked_OneSided"
			]
		},
		{
			"ShaderMapHash": "3405841F17B552E02BF77FFE5ACF8B2C30C0CCFC",
			"Assets": [
				"/Engine/EngineMaterials/Widget3DPassThrough_Opaque_OneSided"
			]
		},
		{
			"ShaderMapHash": "C079213337BDD4698E36BAE63E4AB3B01D0D9D9C",
			"Assets": [
				"/VirtualProductionUtilities/2D/Materials/UI/Dynamic/MI/MeasurementSystem/MI_UI_Action_Active_Left"
			]
		},
		{
			"ShaderMapHash": "DA1A638816DA869415D4415E6852E279EFFB47C9",
			"Assets": [
				"/Interchange/gltf/M_Opaque"
			]
		},
		{
			"ShaderMapHash": "D4BAA9BF05FF7836067483689D378F1FC16FFC88",
			"Assets": [
				"/Interchange/gltf/M_Unlit",
				"/Interchange/gltf/MaterialInstances_MR/MI_Opaque_Unlit_TS"
			]
		},
		{
			"ShaderMapHash": "62EE5ACC0B98455DB703831FCED891109FD86076",
			"Assets": [
				"/Interchange/Materials/ThinTranslucentMaterial"
			]
		},
		{
			"ShaderMapHash": "183DE6E875D85EE122E689ADEADF82AA7BE4EF4C",
			"Assets": [
				"/Interchange/Materials/SubsurfaceMaterial"
			]
		},
		{
			"ShaderMapHash": "5A4174169216D66119B84167CBF0E113F4F5DE66",
			"Assets": [
				"/Interchange/Materials/SheenMaterial"
			]
		},
		{
			"ShaderMapHash": "69250C7061DAD216A5C656C47C624FC53AB2C1D8",
			"Assets": [
				"/Interchange/Materials/PBRSurfaceMaterial"
			]
		},
		{
			"ShaderMapHash": "2505B54F360FFB016E328103BE999850119B28A8",
			"Assets": [
				"/Interchange/Materials/ClearCoatMaterial"
			]
		},
		{
			"ShaderMapHash": "ED6D112E919FABD8AEEDD162BA32EAFCB255952F",
			"Assets": [
				"/Game/Characters/MannequinsXR/Materials/M_Mannequin",
				"/Game/Characters/MannequinsXR/Materials/Instances/Manny/MI_Manny_01"
			]
		},
		{
			"ShaderMapHash": "13CEAA71ACFCA890CF8106D9869A6FC6807F2796",
			"Assets": [
				"/Interchange/gltf/M_Transmission"
			]
		},
		{
			"ShaderMapHash": "8FC5AD67BE5E963660EEE8C4C291000BA360C3F8",
			"Assets": [
				"/Interchange/gltf/M_Sheen"
			]
		},
		{
			"ShaderMapHash": "D55A9FFB9FD30E912C765380276AA6EB30B0FFFF",
			"Assets": [
				"/Interchange/gltf/M_Translucent"
			]
		},
		{
			"ShaderMapHash": "B04BEEAD95A813A91062E9CB629A541EBABDEE97",
			"Assets": [
				"/Interchange/gltf/MaterialInstances_SG/MI_Opaque_ClearCoat_TS"
			]
		},
		{
			"ShaderMapHash": "E07CC49BC00E0B4D49FD7F1F1F549BBE65E7EAB7",
			"Assets": [
				"/Interchange/gltf/MaterialInstances_SG/MI_Opaque_ClearCoat"
			]
		},
		{
			"ShaderMapHash": "2DDCF4938A29E641CDF00C009EF63A48C7164443",
			"Assets": [
				"/Interchange/gltf/MaterialInstances_SG/MI_Transmission_TS"
			]
		},
		{
			"ShaderMapHash": "309214E20791EE2F37715A7D5FB926A0362068AF",
			"Assets": [
				"/Interchange/gltf/MaterialInstances_SG/MI_Transmission"
			]
		},
		{
			"ShaderMapHash": "13C6C2E46C319006DFA365E54129C4DADAA2DF31",
			"Assets": [
				"/Interchange/gltf/MaterialInstances_MR/MI_Opaque_Sheen_TS"
			]
		},
		{
			"ShaderMapHash": "4D56A90D34DBF8E4541C86A7753A7E6E83356155",
			"Assets": [
				"/Interchange/gltf/MaterialInstances_SG/MI_Opaque_Sheen_TS"
			]
		},
		{
			"ShaderMapHash": "D793B96A1118ACA358D87C1D1A3792819A00DB16",
			"Assets": [
				"/VirtualProductionUtilities/2D/Materials/UI/Dynamic/MI/ColorPicker/MI_UI_ColorSlider"
			]
		},
		{
			"ShaderMapHash": "481135A180DE65AA688806411383910247AFAE4C",
			"Assets": [
				"/Interchange/gltf/MaterialInstances_MR/MI_Transmission_TS"
			]
		},
		{
			"ShaderMapHash": "E8FDEA6434E4246FABEA07AAC7A9AD3BCDDA9973",
			"Assets": [
				"/Interchange/gltf/MaterialInstances_SG/MI_Opaque_Sheen"
			]
		},
		{
			"ShaderMapHash": "F7883A25BCC2F10E6F018F1E580559CD44D719DA",
			"Assets": [
				"/Interchange/gltf/MaterialInstances_MR/MI_Translucent_TS"
			]
		},
		{
			"ShaderMapHash": "58E78AFD07D0C4543D96B8776EA35BE4E54B8259",
			"Assets": [
				"/Interchange/gltf/MaterialInstances_MR/MI_Translucent_ClearCoat_TS"
			]
		},
		{
			"ShaderMapHash": "60A2BD83FD909846C93F94E60C9F15684E78EFCC",
			"Assets": [
				"/Interchange/gltf/MaterialInstances_MR/MI_Translucent_ClearCoat"
			]
		},
		{
			"ShaderMapHash": "A2890A7368CD3F189445CFE4C478EF2A0001F00D",
			"Assets": [
				"/Interchange/gltf/MaterialInstances_SG/MI_Translucent_TS"
			]
		},
		{
			"ShaderMapHash": "077B39BED99DA287F0D6FEF314959CC2115F8113",
			"Assets": [
				"/Interchange/gltf/MaterialInstances_SG/MI_Translucent_ClearCoat_TS"
			]
		},
		{
			"ShaderMapHash": "22344C15468968AC64FC2BCA919B8514FF4B0FB0",
			"Assets": [
				"/Interchange/gltf/MaterialInstances_SG/MI_Translucent_ClearCoat"
			]
		},
		{
			"ShaderMapHash": "6603DD8F18746A588035A61096849E4866D4E4BE",
			"Assets": [
				"/Interchange/gltf/MaterialInstances_SG/MI_Translucent"
			]
		},
		{
			"ShaderMapHash": "6D4EC837995E6B676AAD8A801FEA245B3894E58B",
			"Assets": [
				"/Interchange/gltf/MaterialInstances_MR/MI_Opaque_TS"
			]
		},
		{
			"ShaderMapHash": "1F85326445DFA761F9D32E29FCE97ADC74B7E4FB",
			"Assets": [
				"/Interchange/gltf/MaterialInstances_MR/MI_Opaque_ClearCoat_TS"
			]
		},
		{
			"ShaderMapHash": "8FD2818930350892614AA76CEBD15B45BFD7D2E8",
			"Assets": [
				"/Interchange/gltf/MaterialInstances_MR/MI_Opaque_ClearCoat"
			]
		},
		{
			"ShaderMapHash": "D9C0314697F97A32126759B288079844F3ED2FD1",
			"Assets": [
				"/Interchange/gltf/MaterialInstances_SG/MI_Opaque_TS"
			]
		},
		{
			"ShaderMapHash": "C257174EC4CEFE865714DAEF6549507BCE756799",
			"Assets": [
				"/Interchange/gltf/MaterialInstances_SG/MI_Opaque"
			]
		},
		{
			"ShaderMapHash": "C73FF38DE75AC127296BC081C31D9246ED1DF59A",
			"Assets": [
				"/VirtualProductionUtilities/2D/Materials/UI/ContextMenu/Gaffer/M_GafferFlipbook"
			]
		},
		{
			"ShaderMapHash": "3F2E3C721993CD47C63F2739FB7B8BBB04553C6D",
			"Assets": [
				"/Game/Characters/MannequinsXR/Materials/Instances/Manny/MI_Manny_02"
			]
		},
		{
			"ShaderMapHash": "9E5F2A24CAD5C14BB71E5FD97B4AB404B6BA15DC",
			"Assets": [
				"/Game/VRTemplate/Maps/SVRPT_MAIN"
			]
		}
	]
}