"Path","Platform","Compiled","Cooked","Permutations","Compiletime","CompiledDouble","CookedDouble"
"Globals","0","4806","0","1","0.000000","0","0"
"/ControlRig/Controls/ControlRigGizmoMaterial.ControlRigGizmoMaterial","0","2","2","1","1.928774","0","3"
"/Engine/EditorMaterials/PhAT_UnselectedMaterial.PhAT_UnselectedMaterial","0","3","3","1","3.146051","0","5"
"/Engine/EditorMaterials/PhAT_NoCollisionMaterial.PhAT_NoCollisionMaterial","0","3","3","1","2.683015","0","5"
"/Engine/VREditor/FloatingText/LineMaterial.LineMaterial","0","2","2","1","2.258486","0","2"
"","0","1","0","1","0.000000","14","0"
"/MovieRenderPipeline/Materials/MoviePipeline_StencilCutout.MoviePipeline_StencilCutout","0","15","17","1","11.908598","0","33"
"/Engine/EngineDebugMaterials/DebugEditorMaterial.DebugEditorMaterial","0","5","6","1","5.424156","0","8"
"/Engine/EngineDebugMaterials/DebugMeshMaterial.DebugMeshMaterial","0","5","5","1","3.961846","0","5"
"/MeshModelingToolset/Materials/M_DynamicMeshComponentVtxColor.M_DynamicMeshComponentVtxColor","0","7","1","1","19.048342","0","31"
"/VirtualProductionUtilities/3D/Viewfinder/M_Viewfinder_Frame.M_Viewfinder_Frame","0","6","6","1","23.657047","0","9"
"/VirtualProductionUtilities/Bookmark/M_BookmarkVP.M_BookmarkVP","0","3","1","1","10.682856","0","8"
"/VirtualProductionUtilities/2D/Materials/Bookmark/M_Metal.M_Metal","0","3","1","1","9.521927","0","8"
"/AnimationSharing/AnimSharingBase.AnimSharingBase","0","6","1","1","21.332603","0","26"
"/VirtualProductionUtilities/Dolly/M_DollyVP.M_DollyVP","0","12","6","1","45.874977","0","69"
"/Engine/EngineDebugMaterials/M_SimpleOpaque.M_SimpleOpaque","0","3","3","1","10.066754","0","5"
"/VirtualProductionUtilities/Editor/Meshes/M_ContentWindow.M_ContentWindow","0","6","7","1","12.968845","0","7"
"/Composure/Materials/ReplaceTonemapper/ComposureReplaceTonemapperByTexture.ComposureReplaceTonemapperByTexture","0","4","1","1","2.555103","0","11"
"/Composure/Materials/ReplaceTonemapper/ComposureReplaceTonemapperComposeBloom.ComposureReplaceTonemapperComposeBloom","0","4","4","1","2.641948","0","7"
"/Composure/Materials/Compositing/M_AlphaScale.M_AlphaScale","0","4","1","1","2.605413","0","13"
"/nDisplay/TestPatterns/Animated/M_TPAChevron.M_TPAChevron","0","4","1","1","2.891698","0","13"
"/nDisplay/TestPatterns/Statics/M_TPSGrayBars.M_TPSGrayBars","0","4","1","1","2.532351","0","13"
"/nDisplay/TestPatterns/Statics/M_TPSColoredBars.M_TPSColoredBars","0","4","2","1","2.507238","0","11"
"/ColorCorrectRegions/Materials/M_ColorCorrectRegionTransparentPreview.M_ColorCorrectRegionTransparentPreview","0","3","3","1","2.729688","0","5"
"/Composure/Materials/PassSetup/ComposureBeforeTranslucencySetBlack.ComposureBeforeTranslucencySetBlack","0","4","4","1","2.510841","0","7"
"/nDisplay/TestPatterns/Animated/M_TPAStrips.M_TPAStrips","0","4","4","1","2.663528","0","7"
"/nDisplay/TestPatterns/Animated/M_TPARadar.M_TPARadar","0","4","4","1","2.880708","0","7"
"/nDisplay/TestPatterns/Statics/M_TPSGridCircles.M_TPSGridCircles","0","4","4","1","2.690466","0","4"
"/nDisplay/TestPatterns/Statics/M_TPSCircles.M_TPSCircles","0","4","4","1","2.455808","0","4"
"/ControlRig/Controls/ControlRigXRayMaterial.ControlRigXRayMaterial","0","6","4","1","5.658746","0","25"
"/Engine/EngineMaterials/RemoveSurfaceMaterial.RemoveSurfaceMaterial","0","2","2","1","1.987868","0","2"
"/Engine/EngineMaterials/GizmoMaterial.GizmoMaterial","0","5","6","1","4.982521","0","6"
"/Composure/Materials/PassSetup/ComposureSimpleSetupMaterial.ComposureSimpleSetupMaterial","0","4","4","1","2.462837","0","4"
"/MovieRenderPipeline/Materials/MovieRenderQueue_WorldDepth.MovieRenderQueue_WorldDepth","0","4","4","1","2.492119","0","5"
"/Interchange/Materials/PhongSurfaceMaterial.PhongSurfaceMaterial","0","3","3","1","13.119016","0","3"
"/VirtualProductionUtilities/2D/Materials/Controller/M_Controller_Body_Rift.M_Controller_Body_Rift","0","16","10","2","28.925972","0","28"
"/Game/VRTemplate/Materials/plane.plane","0","3","3","1","8.429071","0","4"
"/Engine/EngineMaterials/PhAT_JointLimitMaterial.PhAT_JointLimitMaterial","0","6","7","1","7.063417","0","12"
"/nDisplay/TestPatterns/Animated/M_TPAMirroredChevron.M_TPAMirroredChevron","0","4","4","1","2.667309","0","7"
"/nDisplay/TestPatterns/Animated/M_TPAGrid.M_TPAGrid","0","4","4","1","2.679405","0","6"
"/VirtualProductionUtilities/2D/Materials/UI/Dynamic/MI/Temperature/M_GradientFade.M_GradientFade","0","10","10","1","5.260105","0","14"
"/VirtualProductionUtilities/2D/Materials/Tools/Tripod/M_Tripod.M_Tripod","0","3","3","1","9.770196","0","4"
"/Game/VRTemplate/Materials/M_Projectile.M_Projectile","0","3","3","1","12.127085","0","3"
"/VirtualProductionUtilities/Materials/M_UnlitText.M_UnlitText","0","13","15","1","12.251139","0","15"
"/VirtualProductionUtilities/2D/Materials/Tools/Handheld/M_Handheld.M_Handheld","0","3","3","1","11.078142","0","3"
"/Engine/EngineMaterials/FlattenMaterial_WS_Normal_VT.FlattenMaterial_WS_Normal_VT","0","6","6","1","22.796860","0","8"
"/VirtualProductionUtilities/2D/Materials/Bookmark/M_Bookmark_Light.M_Bookmark_Light","0","2","2","1","1.850061","0","2"
"/Engine/EngineMaterials/DefaultLightFunctionMaterial.DefaultLightFunctionMaterial","0","23","23","1","15.418457","0","44"
"/VirtualProductionUtilities/2D/Materials/Bookmark/M_Bookmark_MeasureSource.M_Bookmark_MeasureSource","0","2","2","1","2.202961","0","2"
"/VirtualProductionUtilities/2D/Materials/Controller/M_Controller_Indicator.M_Controller_Indicator","0","13","7","1","11.198229","0","80"
"/Engine/VREditor/TransformGizmo/TranslucentTransformGizmoMaterial.TranslucentTransformGizmoMaterial","0","3","3","1","2.749740","0","3"
"/Engine/VREditor/TransformGizmo/Main.Main","0","3","3","1","2.810066","0","3"
"/Game/VRTemplate/Materials/DefaultRibbonMaterial_NoGradient.DefaultRibbonMaterial_NoGradient","0","15","8","1","15.194674","0","40"
"/OpenXR/Devices/M_XRController.M_XRController","0","9","5","3","43.150078","12","57"
"/nDisplay/LightCard/M_UVIndicator.M_UVIndicator","0","3","3","1","2.990747","0","5"
"/MovieRenderPipeline/Materials/MovieRenderQueue_MotionVectors.MovieRenderQueue_MotionVectors","0","4","4","1","2.710309","0","5"
"/Engine/EngineMaterials/Widget3DPassThrough.Widget3DPassThrough","0","41","16","6","47.065079","0","204"
"/Engine/EditorMaterials/WorldPartition/WorldPartitionSpatialHashGridPreviewMaterial.WorldPartitionSpatialHashGridPreviewMaterial","0","4","4","1","3.996037","0","4"
"/VirtualProductionUtilities/Materials/WidgetPostProcessMaterial.WidgetPostProcessMaterial","0","4","4","1","2.421594","0","4"
"/Engine/EngineMaterials/DefaultDeferredDecalMaterial.DefaultDeferredDecalMaterial","0","33","4","1","58.423210","0","197"
"/Engine/EngineMaterials/DefaultPostProcessMaterial.DefaultPostProcessMaterial","0","6","6","1","5.345003","0","7"
"/Engine/BasicShapes/BasicShapeMaterial.BasicShapeMaterial","0","9","1","1","37.023193","0","21"
"/Engine/VREditor/TransformGizmo/TransformGizmoMaterial.TransformGizmoMaterial","0","2","2","1","2.244403","0","3"
"/VirtualProductionUtilities/2D/Materials/Controller/M_SettingsButton.M_SettingsButton","0","2","2","1","2.303532","0","3"
"/VirtualProductionUtilities/2D/Materials/Tools/Gaffer/M_Gaffer.M_Gaffer","0","3","1","1","17.585993","0","8"
"/Engine/EditorMaterials/PreviewShadowIndicatorMaterial.PreviewShadowIndicatorMaterial","0","23","1","1","18.291702","0","277"
"/Engine/EngineMaterials/DefaultTextMaterialOpaque.DefaultTextMaterialOpaque","0","14","8","1","31.046963","0","88"
"/MeshModelingToolsetExp/Materials/GizmoDefaultMaterial.GizmoDefaultMaterial","0","3","1","1","16.351622","0","8"
"/VirtualProductionUtilities/2D/Materials/Controller/M_Controller_Touchpad.M_Controller_Touchpad","0","3","1","1","3.356581","0","8"
"/Engine/VREditor/TransformGizmo/Xray.Xray","0","3","3","1","10.614051","0","3"
"/Engine/EngineSky/VolumetricClouds/m_SimpleVolumetricCloud.m_SimpleVolumetricCloud","0","39","1","1","228.184509","0","736"
"/VirtualProductionUtilities/2D/Materials/Controller/M_Picker.M_Picker","0","2","2","1","2.611406","0","3"
"/Interchange/Materials/UnlitMaterial.UnlitMaterial","0","2","2","1","2.813308","0","2"
"/Engine/EngineDebugMaterials/M_SimpleUnlitTranslucent.M_SimpleUnlitTranslucent","0","3","1","1","3.938173","0","8"
"/Engine/VREditor/LaserPointer/LaserPointerMaterial.LaserPointerMaterial","0","14","5","2","17.065483","0","40"
"/VirtualProductionUtilities/2D/Materials/UI/Dynamic/M/M_RoundBorders.M_RoundBorders","0","70","24","7","31.616972","340","1690"
"/Game/VRTemplate/Materials/M_VRCursor.M_VRCursor","0","2","2","1","2.397691","0","3"
"/Engine/EditorMaterials/Camera/CineMat.CineMat","0","6","1","1","25.895393","0","26"
"/VirtualProductionUtilities/2D/Materials/Controller/M_Controller_Body.M_Controller_Body","0","16","4","2","38.041332","0","72"
"/VirtualProductionUtilities/2D/Materials/Tools/Marker/M_Erasor.M_Erasor","0","3","1","1","13.515393","0","8"
"/Game/StarterContent/Materials/M_Brick_Clay_New.M_Brick_Clay_New","0","3","3","1","41.077614","16","55"
"/Engine/EngineDebugMaterials/M_VolumeRenderSphereTracePP.M_VolumeRenderSphereTracePP","0","4","1","1","6.294954","0","13"
"/Engine/EngineSky/M_Sky_Panning_Clouds2.M_Sky_Panning_Clouds2","0","2","2","1","2.883143","0","2"
"/Engine/EngineMaterials/DefaultMaterial.DefaultMaterial","0","24","5","1","114.641266","0","129"
"/VirtualProductionUtilities/2D/Materials/Controller/M_Controller_ColorWheel_RiftS.M_Controller_ColorWheel_RiftS","0","13","2","1","13.311494","0","68"
"/Game/VRTemplate/Blueprints/Tools/particle/material/Paint.Paint","0","6","1","1","31.453100","0","20"
"/VirtualProductionUtilities/2D/Materials/UI/ContextMenu/Gaffer/M_GafferFlipbook.M_GafferFlipbook","0","10","3","1","6.486953","0","26"
"/Interchange/gltf/M_Opaque.M_Opaque","0","112","38","8","205.491592","0","449"
"/Game/Characters/MannequinsXR/Materials/M_Mannequin.M_Mannequin","0","24","21","3","75.970863","0","51"
"/Engine/EditorLandscapeResources/SplineEditorMeshMat.SplineEditorMeshMat","0","10","12","1","10.321193","0","20"
"/VirtualProductionUtilities/2D/Materials/UI/Icons/Marker/M_Marker.M_Marker","0","20","4","1","11.253783","0","88"
"/Paper2D/DefaultSpriteMaterial.DefaultSpriteMaterial","0","36","6","2","42.759289","0","194"
"/Game/VRTemplate/Blueprints/Tools/3D_Letters/SUPERTOOL/Black.Black","0","9","3","1","26.812252","0","41"
"/Composure/Materials/Media/M_VideoPlateDefault.M_VideoPlateDefault","0","4","4","1","2.677968","0","4"
"/Engine/VREditor/Fonts/VRTextMaterial.VRTextMaterial","0","13","1","1","14.434202","0","97"
"/Interchange/gltf/M_Translucent.M_Translucent","0","56","18","8","412.053040","0","191"
"/Engine/EditorMeshes/ColorCalibrator/M_GreyBall.M_GreyBall","0","6","1","1","30.295609","0","14"
"/Interchange/gltf/M_Transmission.M_Transmission","0","36","11","4","240.231888","0","109"
"/Composure/Materials/Media/M_StaticVideoPlateDebug.M_StaticVideoPlateDebug","0","4","2","1","3.889893","0","11"
"/Interchange/gltf/M_Sheen.M_Sheen","0","56","20","4","149.043808","0","270"
"/Interchange/Materials/ThinTranslucentMaterial.ThinTranslucentMaterial","0","6","1","1","55.113350","0","24"
"/nDisplay/LightCard/M_LightCard.M_LightCard","0","3","1","1","4.585602","0","8"
"/Interchange/Materials/SubsurfaceMaterial.SubsurfaceMaterial","0","3","3","1","26.934059","0","5"
"/Engine/EngineMeshes/BackgroundMaterial.BackgroundMaterial","0","6","1","1","43.360424","0","26"
"/Interchange/gltf/M_Unlit.M_Unlit","0","26","8","2","30.025864","0","186"
"/Engine/VREditor/Devices/Generic/GenericHMDMaterial.GenericHMDMaterial","0","4","1","1","6.237888","0","10"
"/nDisplay/Materials/Preview/M_ProjPolicyPreview.M_ProjPolicyPreview","0","3","3","1","4.539800","0","5"
"/ControlRig/M_Manip.M_Manip","0","6","5","1","8.724849","0","20"
"/Interchange/Materials/ClearCoatMaterial.ClearCoatMaterial","0","3","3","1","22.828894","0","5"
"/Interchange/Materials/PBRSurfaceMaterial.PBRSurfaceMaterial","0","3","3","1","16.545197","0","5"
"/Interchange/Materials/SheenMaterial.SheenMaterial","0","3","3","1","16.573839","0","4"
"/Interchange/Materials/LambertSurfaceMaterial.LambertSurfaceMaterial","0","3","3","1","15.473220","0","3"
"/Engine/VREditor/UI/M_ContentWindow.M_ContentWindow","0","11","2","1","23.651140","0","39"
"/Composure/Materials/ChromaKeying/M_SinglePassDespill.M_SinglePassDespill","0","4","2","1","3.113610","0","11"
"/Engine/EngineMaterials/FlattenMaterial.FlattenMaterial","0","6","6","1","31.407255","0","7"
"/MovieRenderPipeline/Blueprints/M_MoviePipelineRenderPreview.M_MoviePipelineRenderPreview","0","9","9","1","4.943704","0","14"
"/Engine/EngineMaterials/EmissiveMeshMaterial.EmissiveMeshMaterial","0","5","5","1","5.055602","0","9"
"/Engine/EngineMaterials/FlattenMaterial_VT.FlattenMaterial_VT","0","6","2","1","33.405754","0","15"
"/Engine/EngineMaterials/M_InvalidLightmapSettings.M_InvalidLightmapSettings","0","6","1","1","37.768375","0","19"
"/VirtualProductionUtilities/Bookmark/CameraFacingTextMaterial.CameraFacingTextMaterial","0","13","1","1","18.021204","0","102"
"/VirtualProductionUtilities/Materials/VpRenderTextureMaterial.VPRenderTextureMaterial","0","8","6","2","11.201731","0","17"
"/Game/VRTemplate/Materials/M_TeleportNoise.M_TeleportNoise","0","9","5","1","13.925028","0","33"
"/Game/FirstPersonArms/Character/Materials/M_UE4Man_Body.M_UE4Man_Body","0","28","1","1","52.077175","0","288"
"/VirtualProductionUtilities/ScoutingFlare/M_PulsingFlare.M_PulsingFlare","0","3","1","1","4.042047","0","8"
"/Interchange/Materials/OrenNayerMaterial.OrenNayerMaterial","0","4","5","1","84.486259","0","5"
"/VirtualProductionUtilities/2D/Materials/UI/ContextMenu/M_Interactor_Cursor.M_Interactor_Cursor","0","2","2","1","2.615202","0","3"
"/VirtualProductionUtilities/2D/Materials/UI/Icons/Flag/M_Flag.M_Flag","0","20","1","1","15.585931","0","199"
"/Composure/Materials/ChromaKeying/M_SinglePassChromaKeyer.M_SinglePassChromaKeyer","0","4","1","1","3.783813","0","13"
"/Game/VRTemplate/Materials/M_TeleportCylinder.M_TeleportCylinder","0","15","1","1","18.881466","0","118"
"/VirtualProductionUtilities/2D/Materials/UI/Dynamic/M/M_ProgressBar.M_ProgressBar","0","9","1","1","5.237952","0","53"
"/Game/FPWeapon/Materials/M_FPGun.M_FPGun","0","28","1","1","57.887238","0","314"
"/VirtualProductionUtilities/2D/Materials/HelpSystem/M_Unlit.M_Unlit","0","15","3","1","18.492100","0","87"
"/VirtualProductionUtilities/LineRenderer/Materials/Mat_Beam.Mat_Beam","0","12","2","1","13.825863","0","70"
"/VirtualProductionUtilities/2D/Materials/UI/Icons/Camera/M_Camera.M_Camera","0","20","5","1","14.872136","0","141"
"/VirtualProductionUtilities/2D/Materials/Controller/M_Controller_Buttons.M_Controller_Buttons","0","6","1","1","21.779249","0","16"
"/VirtualProductionUtilities/3D/Viewfinder/M_Viewfinder_InfoBG.M_Viewfinder_InfoBG","0","6","1","1","7.578667","0","22"
"/VirtualProductionUtilities/VR/Textures/IconFlyingMode_Mat.IconFlyingMode_Mat","0","14","2","1","29.266226","0","120"
"/VirtualProductionUtilities/2D/Materials/UI/ContextMenu/MeasureTool/M_MeasurePanel.M_MeasurePanel","0","13","1","1","14.872746","0","99"
"/VirtualProductionUtilities/Materials/MarkerColorMaterial.MarkerColorMaterial","0","10","2","1","13.102286","0","63"
"/Niagara/DefaultAssets/DefaultSpriteMaterial.DefaultSpriteMaterial","0","30","3","1","46.653805","0","470"
"/Engine/EngineMaterials/WorldGridMaterial.WorldGridMaterial","0","294","9","1","669.801941","0","11475"
"/SpeedTreeImporter/SpeedTree9/SpeedTreeMaster.SpeedTreeMaster","0","28","2","1","103.349983","0","209"
"/SpeedTreeImporter/SpeedTree9/SpeedTreeBillboardMaster.SpeedTreeBillboardMaster","0","28","9","1","100.948929","0","145"
"/VirtualProductionUtilities/2D/Materials/UI/Icons/User/M_User.M_User","0","20","4","1","7.780800","0","97"
"Globals","49","5244","0","1","0.000000","0","0"
"/ControlRig/Controls/ControlRigGizmoMaterial.ControlRigGizmoMaterial","49","2","2","1","1.585398","0","2"
"/Engine/EngineDebugMaterials/DebugEditorMaterial.DebugEditorMaterial","49","5","1","1","5.216951","0","18"
"/VirtualProductionUtilities/2D/Materials/Bookmark/M_Metal.M_Metal","49","3","3","1","13.055184","0","4"
"/Engine/EditorMaterials/PhAT_UnselectedMaterial.PhAT_UnselectedMaterial","49","3","3","1","3.436977","0","3"
"/Engine/EditorMaterials/PhAT_NoCollisionMaterial.PhAT_NoCollisionMaterial","49","3","3","1","3.297978","0","3"
"/Engine/VREditor/FloatingText/LineMaterial.LineMaterial","49","2","2","1","2.316400","0","2"
"/VirtualProductionUtilities/3D/Viewfinder/M_Viewfinder_Frame.M_Viewfinder_Frame","49","6","6","1","25.853304","0","6"
"/VirtualProductionUtilities/Bookmark/M_BookmarkVP.M_BookmarkVP","49","3","3","1","12.824079","0","3"
"/AnimationSharing/AnimSharingBase.AnimSharingBase","49","6","6","1","24.587252","0","6"
"/VirtualProductionUtilities/Dolly/M_DollyVP.M_DollyVP","49","12","12","1","19.107740","0","12"
"/Engine/EngineDebugMaterials/M_SimpleOpaque.M_SimpleOpaque","49","3","3","1","11.927610","0","3"
"/VirtualProductionUtilities/Editor/Meshes/M_ContentWindow.M_ContentWindow","49","6","7","1","12.764960","0","7"
"/Engine/EngineDebugMaterials/DebugMeshMaterial.DebugMeshMaterial","49","5","5","1","4.546782","0","5"
"/MeshModelingToolset/Materials/M_DynamicMeshComponentVtxColor.M_DynamicMeshComponentVtxColor","49","7","9","1","15.143964","0","9"
"/MovieRenderPipeline/Materials/MoviePipeline_StencilCutout.MoviePipeline_StencilCutout","49","17","19","1","13.462415","0","27"
"/Engine/EngineMaterials/RemoveSurfaceMaterial.RemoveSurfaceMaterial","49","2","2","1","2.388296","0","3"
"/Engine/EngineMaterials/GizmoMaterial.GizmoMaterial","49","5","1","1","6.094902","0","14"
"/Composure/Materials/ReplaceTonemapper/ComposureReplaceTonemapperByTexture.ComposureReplaceTonemapperByTexture","49","4","4","1","2.945999","0","4"
"/Composure/Materials/Compositing/M_AlphaScale.M_AlphaScale","49","4","4","1","2.664420","0","4"
"/Composure/Materials/ReplaceTonemapper/ComposureReplaceTonemapperComposeBloom.ComposureReplaceTonemapperComposeBloom","49","4","4","1","2.460869","0","4"
"/Composure/Materials/PassSetup/ComposureSimpleSetupMaterial.ComposureSimpleSetupMaterial","49","4","4","1","3.479251","0","6"
"/Composure/Materials/PassSetup/ComposureBeforeTranslucencySetBlack.ComposureBeforeTranslucencySetBlack","49","4","4","1","2.812039","0","7"
"/ControlRig/Controls/ControlRigXRayMaterial.ControlRigXRayMaterial","49","6","1","1","6.625309","0","18"
"/nDisplay/TestPatterns/Animated/M_TPAStrips.M_TPAStrips","49","4","4","1","3.510837","0","5"
"/nDisplay/TestPatterns/Animated/M_TPARadar.M_TPARadar","49","4","4","1","3.318065","0","6"
"/nDisplay/TestPatterns/Animated/M_TPAMirroredChevron.M_TPAMirroredChevron","49","4","2","1","3.529395","0","11"
"/nDisplay/TestPatterns/Animated/M_TPAGrid.M_TPAGrid","49","4","4","1","3.319664","0","6"
"/nDisplay/TestPatterns/Animated/M_TPAChevron.M_TPAChevron","49","4","4","1","2.281713","0","4"
"/nDisplay/TestPatterns/Statics/M_TPSGridCircles.M_TPSGridCircles","49","4","4","1","6.081623","0","7"
"/nDisplay/TestPatterns/Statics/M_TPSGrayBars.M_TPSGrayBars","49","4","4","1","2.911300","0","4"
"/nDisplay/TestPatterns/Statics/M_TPSColoredBars.M_TPSColoredBars","49","4","4","1","2.492686","0","4"
"/nDisplay/TestPatterns/Statics/M_TPSCircles.M_TPSCircles","49","4","4","1","2.856691","0","7"
"/ColorCorrectRegions/Materials/M_ColorCorrectRegionTransparentPreview.M_ColorCorrectRegionTransparentPreview","49","3","3","1","2.873971","0","3"
"","49","1","0","1","0.000000","12","0"
"/Engine/EngineMaterials/DefaultLightFunctionMaterial.DefaultLightFunctionMaterial","49","23","12","1","15.144182","0","77"
"/VirtualProductionUtilities/2D/Materials/Bookmark/M_Bookmark_MeasureSource.M_Bookmark_MeasureSource","49","2","2","1","2.109509","0","3"
"/VirtualProductionUtilities/2D/Materials/Controller/M_Controller_Indicator.M_Controller_Indicator","49","15","3","1","13.913391","0","47"
"/Engine/VREditor/TransformGizmo/TranslucentTransformGizmoMaterial.TranslucentTransformGizmoMaterial","49","3","1","1","3.658666","0","8"
"/Engine/VREditor/TransformGizmo/Main.Main","49","3","1","1","4.003693","0","8"
"/Game/VRTemplate/Materials/DefaultRibbonMaterial_NoGradient.DefaultRibbonMaterial_NoGradient","49","15","3","1","16.496048","0","50"
"/Engine/BasicShapes/BasicShapeMaterial.BasicShapeMaterial","49","11","2","1","59.771328","0","33"
"/MeshModelingToolsetExp/Materials/GizmoDefaultMaterial.GizmoDefaultMaterial","49","3","3","1","12.901869","0","4"
"/VirtualProductionUtilities/2D/Materials/Controller/M_Controller_Touchpad.M_Controller_Touchpad","49","3","3","1","3.029083","0","5"
"/Engine/VREditor/TransformGizmo/Xray.Xray","49","3","1","1","13.095878","0","8"
"/Engine/VREditor/TransformGizmo/TransformGizmoMaterial.TransformGizmoMaterial","49","2","2","1","2.138958","0","2"
"/Engine/VREditor/LaserPointer/LaserPointerMaterial.LaserPointerMaterial","49","14","5","2","24.051544","0","63"
"/VirtualProductionUtilities/2D/Materials/Controller/M_SettingsButton.M_SettingsButton","49","2","2","1","2.207768","0","3"
"/Engine/EngineDebugMaterials/M_VolumeRenderSphereTracePP.M_VolumeRenderSphereTracePP","49","4","1","1","3.238203","0","13"
"/Engine/EditorMaterials/Camera/CineMat.CineMat","49","6","3","1","27.743191","0","16"
"/Engine/EngineDebugMaterials/M_SimpleUnlitTranslucent.M_SimpleUnlitTranslucent","49","3","3","1","2.968636","0","5"
"/VirtualProductionUtilities/2D/Materials/Controller/M_Controller_Body.M_Controller_Body","49","16","10","2","31.485727","0","57"
"/VirtualProductionUtilities/2D/Materials/Controller/M_Controller_Body_Rift.M_Controller_Body_Rift","49","16","16","2","30.588959","0","16"
"/VirtualProductionUtilities/2D/Materials/Controller/M_Controller_ColorWheel_RiftS.M_Controller_ColorWheel_RiftS","49","15","5","1","14.532885","0","119"
"/Engine/EditorLandscapeResources/SplineEditorMeshMat.SplineEditorMeshMat","49","10","7","1","11.937543","0","52"
"/Game/VRTemplate/Materials/plane.plane","49","3","3","1","14.301176","0","3"
"/Engine/EngineMaterials/PhAT_JointLimitMaterial.PhAT_JointLimitMaterial","49","6","7","1","6.635139","0","7"
"/VirtualProductionUtilities/2D/Materials/UI/Icons/Marker/M_Marker.M_Marker","49","22","1","1","18.184776","0","291"
"/Paper2D/DefaultSpriteMaterial.DefaultSpriteMaterial","49","40","7","2","44.800377","0","610"
"/Game/VRTemplate/Blueprints/Tools/3D_Letters/SUPERTOOL/Black.Black","49","9","1","1","53.170773","0","53"
"/Engine/EditorMeshes/ColorCalibrator/M_GreyBall.M_GreyBall","49","6","1","1","32.814331","0","26"
"/Engine/VREditor/Fonts/VRTextMaterial.VRTextMaterial","49","15","5","1","13.511256","0","140"
"/Composure/Materials/Media/M_VideoPlateDefault.M_VideoPlateDefault","49","4","1","1","3.928279","0","13"
"/Engine/VREditor/Devices/Generic/GenericHMDMaterial.GenericHMDMaterial","49","4","1","1","4.424854","0","13"
"/Engine/EngineMeshes/BackgroundMaterial.BackgroundMaterial","49","6","1","1","27.214769","0","26"
"/Composure/Materials/Media/M_StaticVideoPlateDebug.M_StaticVideoPlateDebug","49","4","1","1","3.198436","0","13"
"/nDisplay/LightCard/M_LightCard.M_LightCard","49","3","1","1","3.303131","0","8"
"/Engine/VREditor/UI/M_ContentWindow.M_ContentWindow","49","13","1","1","26.206202","0","106"
"/Composure/Materials/ChromaKeying/M_SinglePassDespill.M_SinglePassDespill","49","4","1","1","3.250142","0","13"
"/nDisplay/Materials/Preview/M_ProjPolicyPreview.M_ProjPolicyPreview","49","3","1","1","3.335678","0","8"
"/Engine/EngineMaterials/FlattenMaterial.FlattenMaterial","49","8","2","1","52.812527","0","37"
"/ControlRig/M_Manip.M_Manip","49","6","1","1","7.415968","0","28"
"/MovieRenderPipeline/Blueprints/M_MoviePipelineRenderPreview.M_MoviePipelineRenderPreview","49","9","1","1","6.435744","0","53"
"/Engine/EngineMaterials/EmissiveMeshMaterial.EmissiveMeshMaterial","49","5","1","1","5.703267","0","19"
"/Engine/EngineMaterials/M_InvalidLightmapSettings.M_InvalidLightmapSettings","49","6","3","1","32.716648","0","21"
"/VirtualProductionUtilities/2D/Materials/Tools/Handheld/M_Handheld.M_Handheld","49","3","3","1","14.404725","0","4"
"/Engine/EngineMaterials/FlattenMaterial_VT.FlattenMaterial_VT","49","8","2","1","45.225395","0","41"
"/Engine/EngineMaterials/FlattenMaterial_WS_Normal_VT.FlattenMaterial_WS_Normal_VT","49","8","8","1","43.000896","0","13"
"/VirtualProductionUtilities/2D/Materials/UI/Dynamic/MI/Temperature/M_GradientFade.M_GradientFade","49","10","10","1","6.229671","0","10"
"/VirtualProductionUtilities/2D/Materials/Tools/Tripod/M_Tripod.M_Tripod","49","3","3","1","13.220014","0","3"
"/VirtualProductionUtilities/2D/Materials/Bookmark/M_Bookmark_Light.M_Bookmark_Light","49","2","2","1","2.007237","0","3"
"/VirtualProductionUtilities/2D/Materials/UI/Icons/Flag/M_Flag.M_Flag","49","22","2","1","19.773333","0","281"
"/VirtualProductionUtilities/ScoutingFlare/M_PulsingFlare.M_PulsingFlare","49","3","1","1","3.868805","0","8"
"/VirtualProductionUtilities/2D/Materials/UI/Dynamic/M/M_ProgressBar.M_ProgressBar","49","9","1","1","6.445039","0","53"
"/VirtualProductionUtilities/2D/Materials/UI/Icons/Camera/M_Camera.M_Camera","49","22","1","1","19.075167","0","283"
"/VirtualProductionUtilities/Materials/VpRenderTextureMaterial.VPRenderTextureMaterial","49","8","2","2","10.233033","0","26"
"/VirtualProductionUtilities/VR/Textures/IconFlyingMode_Mat.IconFlyingMode_Mat","49","16","13","1","26.207537","0","98"
"/Game/VRTemplate/Materials/M_Projectile.M_Projectile","49","3","3","1","14.102472","0","3"
"/VirtualProductionUtilities/2D/Materials/HelpSystem/M_Unlit.M_Unlit","49","15","1","1","19.073034","0","148"
"/VirtualProductionUtilities/2D/Materials/UI/Icons/User/M_User.M_User","49","22","3","1","19.718851","0","257"
"/VirtualProductionUtilities/2D/Materials/UI/ContextMenu/M_Interactor_Cursor.M_Interactor_Cursor","49","2","2","1","2.702025","0","3"
"/VirtualProductionUtilities/LineRenderer/Materials/Mat_Beam.Mat_Beam","49","12","1","1","13.304913","0","84"
"/VirtualProductionUtilities/3D/Viewfinder/M_Viewfinder_InfoBG.M_Viewfinder_InfoBG","49","6","1","1","6.535989","0","26"
"/VirtualProductionUtilities/Materials/MarkerColorMaterial.MarkerColorMaterial","49","10","1","1","11.489668","0","73"
"/Niagara/DefaultAssets/DefaultSpriteMaterial.DefaultSpriteMaterial","49","30","6","1","31.082525","0","518"
"/VirtualProductionUtilities/2D/Materials/Tools/Marker/M_Erasor.M_Erasor","49","3","1","1","14.378596","0","8"
"/VirtualProductionUtilities/2D/Materials/Controller/M_Controller_Buttons.M_Controller_Buttons","49","6","1","1","17.621834","0","29"
"/Interchange/Materials/UnlitMaterial.UnlitMaterial","49","2","2","1","2.121901","0","3"
"/Game/VRTemplate/Blueprints/Tools/particle/material/Paint.Paint","49","6","1","1","30.624712","0","23"
"/VirtualProductionUtilities/2D/Materials/Controller/M_Picker.M_Picker","49","2","2","1","2.119967","0","3"
"/VirtualProductionUtilities/2D/Materials/UI/ContextMenu/MeasureTool/M_MeasurePanel.M_MeasurePanel","49","15","7","1","14.249369","0","124"
"/Game/VRTemplate/Materials/M_VRCursor.M_VRCursor","49","2","2","1","2.532990","0","3"
"/Interchange/Materials/PhongSurfaceMaterial.PhongSurfaceMaterial","49","3","3","1","14.343204","0","3"
"/Engine/EngineMaterials/WorldGridMaterial.WorldGridMaterial","49","498","1","1","702.770081","0","12976"
"/VirtualProductionUtilities/Materials/M_UnlitText.M_UnlitText","49","15","17","1","14.185404","0","17"
"/MovieRenderPipeline/Materials/MovieRenderQueue_WorldDepth.MovieRenderQueue_WorldDepth","49","4","4","1","3.243516","0","4"
"/Engine/EngineMaterials/DefaultMaterial.DefaultMaterial","49","24","1","1","112.817688","0","112"
"/Engine/EngineSky/M_Sky_Panning_Clouds2.M_Sky_Panning_Clouds2","49","2","2","1","2.611505","0","3"
"/Game/StarterContent/Materials/M_Brick_Clay_New.M_Brick_Clay_New","49","3","1","1","42.501541","8","47"
"/Engine/EditorMaterials/PreviewShadowIndicatorMaterial.PreviewShadowIndicatorMaterial","49","23","1","1","15.280530","0","66"
"/Engine/EngineMaterials/DefaultTextMaterialOpaque.DefaultTextMaterialOpaque","49","16","1","1","24.172640","0","47"
"/VirtualProductionUtilities/2D/Materials/Tools/Gaffer/M_Gaffer.M_Gaffer","49","3","3","1","12.909480","0","5"
"/Engine/EngineSky/VolumetricClouds/m_SimpleVolumetricCloud.m_SimpleVolumetricCloud","49","39","3","1","55.549580","0","127"
"/Engine/EditorMaterials/WorldPartition/WorldPartitionSpatialHashGridPreviewMaterial.WorldPartitionSpatialHashGridPreviewMaterial","49","4","4","1","4.877950","0","4"
"/VirtualProductionUtilities/Materials/WidgetPostProcessMaterial.WidgetPostProcessMaterial","49","4","4","1","3.032393","0","4"
"/MovieRenderPipeline/Materials/MovieRenderQueue_MotionVectors.MovieRenderQueue_MotionVectors","49","4","4","1","3.022564","0","6"
"/nDisplay/LightCard/M_UVIndicator.M_UVIndicator","49","3","3","1","3.042763","0","3"
"/Engine/EngineMaterials/DefaultPostProcessMaterial.DefaultPostProcessMaterial","49","6","1","1","5.184269","0","17"
"/Engine/EngineMaterials/DefaultDeferredDecalMaterial.DefaultDeferredDecalMaterial","49","33","10","1","38.959812","0","92"
"/OpenXR/Devices/M_XRController.M_XRController","49","9","7","3","47.756359","0","16"
"/Engine/EngineMaterials/Widget3DPassThrough.Widget3DPassThrough","49","45","12","6","51.512470","0","308"
"/SpeedTreeImporter/SpeedTree9/SpeedTreeBillboardMaster.SpeedTreeBillboardMaster","49","32","1","1","77.160599","0","535"
"/SpeedTreeImporter/SpeedTree9/SpeedTreeMaster.SpeedTreeMaster","49","32","1","1","84.053711","0","466"
"/VirtualProductionUtilities/2D/Materials/UI/Dynamic/M/M_RoundBorders.M_RoundBorders","49","70","8","7","38.124371","0","288"
"/Composure/Materials/ChromaKeying/M_SinglePassChromaKeyer.M_SinglePassChromaKeyer","49","4","1","1","3.838711","0","13"
"/Interchange/Materials/OrenNayerMaterial.OrenNayerMaterial","49","4","2","1","19.979839","0","17"
"/Game/VRTemplate/Materials/M_TeleportCylinder.M_TeleportCylinder","49","15","1","1","18.560648","0","111"
"/Game/VRTemplate/Materials/M_TeleportNoise.M_TeleportNoise","49","9","1","1","11.597746","0","47"
"/Game/FPWeapon/Materials/M_FPGun.M_FPGun","49","32","1","1","65.236061","0","468"
"/Game/FirstPersonArms/Character/Materials/M_UE4Man_Body.M_UE4Man_Body","49","32","1","1","62.413277","0","473"
"/Interchange/Materials/LambertSurfaceMaterial.LambertSurfaceMaterial","49","3","1","1","14.807985","0","8"
"/VirtualProductionUtilities/Bookmark/CameraFacingTextMaterial.CameraFacingTextMaterial","49","15","1","1","18.637701","0","130"
"/Interchange/gltf/M_Unlit.M_Unlit","49","30","2","2","31.157459","0","301"
"/Interchange/Materials/ThinTranslucentMaterial.ThinTranslucentMaterial","49","6","1","1","29.877417","0","26"
"/Interchange/Materials/SubsurfaceMaterial.SubsurfaceMaterial","49","3","1","1","15.574048","0","8"
"/Interchange/Materials/SheenMaterial.SheenMaterial","49","3","1","1","20.396151","0","8"
"/Game/Characters/MannequinsXR/Materials/M_Mannequin.M_Mannequin","49","24","3","3","72.868935","0","136"
"/Interchange/Materials/PBRSurfaceMaterial.PBRSurfaceMaterial","49","3","3","1","14.254239","0","5"
"/Interchange/Materials/ClearCoatMaterial.ClearCoatMaterial","49","3","1","1","17.526634","0","8"
"/Interchange/gltf/M_Transmission.M_Transmission","49","36","4","4","144.433899","0","198"
"/Interchange/gltf/M_Sheen.M_Sheen","49","64","4","4","109.855003","0","600"
"/Interchange/gltf/M_Opaque.M_Opaque","49","128","15","8","227.359863","0","889"
"/Interchange/gltf/M_Translucent.M_Translucent","49","56","8","8","257.866333","0","234"
"/VirtualProductionUtilities/2D/Materials/UI/ContextMenu/Gaffer/M_GafferFlipbook.M_GafferFlipbook","49","10","3","1","6.301771","0","40"
