"Path","Platform","Compiled","Cooked","Permutations","Compiletime","CompiledDouble","CookedDouble"
"Globals","0","786","0","1","0.000000","0","0"
"","0","1","0","1","0.000000","7","0"
"/Engine/EngineDebugMaterials/M_SimpleOpaque.M_SimpleOpaque","0","3","3","1","17.258829","0","3"
"/VirtualProductionUtilities/Dolly/M_DollyVP.M_DollyVP","0","12","5","1","35.825447","0","52"
"/AnimationSharing/AnimSharingBase.AnimSharingBase","0","6","6","1","29.836445","0","8"
"/VirtualProductionUtilities/2D/Materials/Bookmark/M_Metal.M_Metal","0","3","3","1","13.131035","0","5"
"/nDisplay/TestPatterns/Statics/M_TPSGridCircles.M_TPSGridCircles","0","4","4","1","3.142494","0","7"
"/VirtualProductionUtilities/Editor/Meshes/M_ContentWindow.M_ContentWindow","0","6","1","1","17.370235","0","19"
"/VirtualProductionUtilities/Bookmark/M_BookmarkVP.M_BookmarkVP","0","3","1","1","12.169168","0","8"
"/VirtualProductionUtilities/3D/Viewfinder/M_Viewfinder_Frame.M_Viewfinder_Frame","0","6","1","1","31.211790","0","17"
"/Engine/VREditor/FloatingText/LineMaterial.LineMaterial","0","2","2","1","2.248634","0","3"
"/Composure/Materials/ReplaceTonemapper/ComposureReplaceTonemapperByTexture.ComposureReplaceTonemapperByTexture","0","4","4","1","2.377342","0","6"
"/Composure/Materials/PassSetup/ComposureSimpleSetupMaterial.ComposureSimpleSetupMaterial","0","4","4","1","2.717873","0","7"
"/VirtualProductionUtilities/Materials/M_UnlitText.M_UnlitText","0","13","1","1","15.205218","0","95"
"/Composure/Materials/PassSetup/ComposureBeforeTranslucencySetBlack.ComposureBeforeTranslucencySetBlack","0","4","1","1","3.309520","0","10"
"/nDisplay/TestPatterns/Animated/M_TPAMirroredChevron.M_TPAMirroredChevron","0","4","1","1","3.645153","0","10"
"/VirtualProductionUtilities/2D/Materials/Tools/Gaffer/M_Gaffer.M_Gaffer","0","3","3","1","15.681912","0","5"
"/VirtualProductionUtilities/Materials/WidgetPostProcessMaterial.WidgetPostProcessMaterial","0","4","4","1","3.333617","0","6"
"/Engine/VREditor/LaserPointer/LaserPointerMaterial.LaserPointerMaterial","0","14","4","2","18.433401","0","62"
"/VirtualProductionUtilities/2D/Materials/Tools/Marker/M_Erasor.M_Erasor","0","3","3","1","17.086285","0","3"
"/nDisplay/TestPatterns/Statics/M_TPSCircles.M_TPSCircles","0","4","4","1","3.505359","0","5"
"/Composure/Materials/ReplaceTonemapper/ComposureReplaceTonemapperComposeBloom.ComposureReplaceTonemapperComposeBloom","0","4","4","1","3.065676","0","6"
"/Game/StarterContent/Materials/M_Brick_Clay_New.M_Brick_Clay_New","0","3","3","1","58.147114","32","109"
"/Game/VRTemplate/Materials/M_Projectile.M_Projectile","0","3","1","1","19.133364","0","8"
"/Engine/VREditor/Fonts/VRTextMaterial.VRTextMaterial","0","13","1","1","13.887366","0","89"
"/nDisplay/TestPatterns/Animated/M_TPAGrid.M_TPAGrid","0","4","4","1","3.202959","0","7"
"/VirtualProductionUtilities/VR/Textures/IconFlyingMode_Mat.IconFlyingMode_Mat","0","14","7","1","29.729174","0","61"
"/VirtualProductionUtilities/2D/Materials/UI/Icons/Camera/M_Camera.M_Camera","0","20","1","1","16.916401","0","76"
"/VirtualProductionUtilities/2D/Materials/UI/Icons/Flag/M_Flag.M_Flag","0","20","4","1","17.363047","0","72"
"/VirtualProductionUtilities/2D/Materials/Tools/Tripod/M_Tripod.M_Tripod","0","3","1","1","17.100302","0","8"
"/VirtualProductionUtilities/2D/Materials/Tools/Handheld/M_Handheld.M_Handheld","0","3","3","1","16.966078","0","4"
"/Engine/VREditor/UI/M_ContentWindow.M_ContentWindow","0","11","10","1","24.835024","0","35"
"/Composure/Materials/Compositing/M_AlphaScale.M_AlphaScale","0","4","4","1","3.571653","0","7"
"/VirtualProductionUtilities/2D/Materials/UI/Icons/Marker/M_Marker.M_Marker","0","20","13","1","16.887630","0","63"
"/nDisplay/TestPatterns/Animated/M_TPAStrips.M_TPAStrips","0","4","4","1","3.419302","0","5"
"/nDisplay/TestPatterns/Statics/M_TPSGrayBars.M_TPSGrayBars","0","4","4","1","3.209386","0","4"
"/nDisplay/LightCard/M_UVIndicator.M_UVIndicator","0","3","3","1","3.489648","0","4"
"/nDisplay/Materials/Preview/M_ProjPolicyPreview.M_ProjPolicyPreview","0","3","3","1","3.885827","0","3"
"/VirtualProductionUtilities/2D/Materials/Controller/M_Controller_ColorWheel_RiftS.M_Controller_ColorWheel_RiftS","0","13","15","1","13.881973","0","15"
"/nDisplay/TestPatterns/Animated/M_TPAChevron.M_TPAChevron","0","4","4","1","3.159333","0","7"
"/nDisplay/TestPatterns/Animated/M_TPARadar.M_TPARadar","0","4","2","1","3.545420","0","11"
"/VirtualProductionUtilities/2D/Materials/UI/ContextMenu/M_Interactor_Cursor.M_Interactor_Cursor","0","2","2","1","2.385796","0","2"
"/VirtualProductionUtilities/2D/Materials/Bookmark/M_Bookmark_Light.M_Bookmark_Light","0","2","2","1","2.540202","0","3"
"/VirtualProductionUtilities/2D/Materials/Controller/M_Controller_Touchpad.M_Controller_Touchpad","0","3","1","1","3.783583","0","8"
"/VirtualProductionUtilities/2D/Materials/Controller/M_SettingsButton.M_SettingsButton","0","2","2","1","2.455736","0","3"
"/ColorCorrectRegions/Materials/M_ColorCorrectRegionTransparentPreview.M_ColorCorrectRegionTransparentPreview","0","3","3","1","3.411130","0","5"
"/Engine/EngineMeshes/BackgroundMaterial.BackgroundMaterial","0","6","1","1","37.401421","0","21"
"/Game/VRTemplate/Blueprints/VR_TOOLS/particle/material/Paint.Paint","0","6","1","1","32.141689","0","23"
"/VirtualProductionUtilities/2D/Materials/Controller/M_Controller_Body_Rift.M_Controller_Body_Rift","0","16","2","2","44.518806","0","46"
"/ControlRig/Controls/ControlRigGizmoMaterial.ControlRigGizmoMaterial","0","0","2","1","0.000000","0","0"
"/Engine/EngineDebugMaterials/DebugEditorMaterial.DebugEditorMaterial","0","0","6","1","0.000000","0","0"
"/Engine/EditorMaterials/PhAT_UnselectedMaterial.PhAT_UnselectedMaterial","0","0","3","1","0.000000","0","0"
"/MeshModelingToolset/Materials/M_DynamicMeshComponentVtxColor.M_DynamicMeshComponentVtxColor","0","0","9","1","0.000000","0","0"
"/Engine/EditorMaterials/PhAT_NoCollisionMaterial.PhAT_NoCollisionMaterial","0","0","3","1","0.000000","0","0"
"/Engine/EngineDebugMaterials/DebugMeshMaterial.DebugMeshMaterial","0","0","5","1","0.000000","0","0"
"/Engine/EngineMaterials/RemoveSurfaceMaterial.RemoveSurfaceMaterial","0","0","2","1","0.000000","0","0"
"/MovieRenderPipeline/Materials/MoviePipeline_StencilCutout.MoviePipeline_StencilCutout","0","0","17","1","0.000000","0","0"
"/Engine/EngineMaterials/GizmoMaterial.GizmoMaterial","0","0","6","1","0.000000","0","0"
"/ControlRig/Controls/ControlRigXRayMaterial.ControlRigXRayMaterial","0","0","7","1","0.000000","0","0"
"/Engine/EngineMaterials/WorldGridMaterial.WorldGridMaterial","0","0","314","1","0.000000","0","0"
"/MovieRenderPipeline/Materials/MovieRenderQueue_MotionVectors.MovieRenderQueue_MotionVectors","0","0","4","1","0.000000","0","0"
"/Engine/EngineMaterials/Widget3DPassThrough.Widget3DPassThrough","0","0","46","6","0.000000","0","3"
"/Engine/EngineDebugMaterials/M_VolumeRenderSphereTracePP.M_VolumeRenderSphereTracePP","0","0","4","1","0.000000","0","0"
"/Engine/EngineMaterials/M_InvalidLightmapSettings.M_InvalidLightmapSettings","0","0","6","1","0.000000","0","0"
"/Engine/EngineMaterials/EmissiveMeshMaterial.EmissiveMeshMaterial","0","0","5","1","0.000000","0","0"
"/Game/VRTemplate/Materials/DefaultRibbonMaterial_NoGradient.DefaultRibbonMaterial_NoGradient","0","0","15","1","0.000000","0","0"
"/Engine/VREditor/Devices/Generic/GenericHMDMaterial.GenericHMDMaterial","0","0","4","1","0.000000","0","0"
"/Game/VRTemplate/Materials/M_VRCursor.M_VRCursor","0","0","2","1","0.000000","0","0"
"/Engine/EditorLandscapeResources/SplineEditorMeshMat.SplineEditorMeshMat","0","0","12","1","0.000000","0","0"
"/Engine/EngineDebugMaterials/M_SimpleUnlitTranslucent.M_SimpleUnlitTranslucent","0","0","3","1","0.000000","0","0"
"/Engine/EditorMaterials/Camera/CineMat.CineMat","0","0","6","1","0.000000","0","0"
"/Engine/VREditor/TransformGizmo/Xray.Xray","0","0","3","1","0.000000","0","0"
"/Engine/VREditor/TransformGizmo/Main.Main","0","0","3","1","0.000000","0","0"
"/Engine/VREditor/TransformGizmo/TranslucentTransformGizmoMaterial.TranslucentTransformGizmoMaterial","0","0","3","1","0.000000","0","0"
"/Engine/EngineMaterials/DefaultLightFunctionMaterial.DefaultLightFunctionMaterial","0","0","23","1","0.000000","0","0"
"/Interchange/Materials/UnlitMaterial.UnlitMaterial","0","0","2","1","0.000000","0","0"
"/Engine/EngineMaterials/FlattenMaterial_WS_Normal_VT.FlattenMaterial_WS_Normal_VT","0","0","6","1","0.000000","0","0"
"/Engine/EngineMaterials/FlattenMaterial_VT.FlattenMaterial_VT","0","0","6","1","0.000000","0","0"
"/MovieRenderPipeline/Blueprints/M_MoviePipelineRenderPreview.M_MoviePipelineRenderPreview","0","0","9","1","0.000000","0","0"
"/Engine/EngineMaterials/FlattenMaterial.FlattenMaterial","0","0","6","1","0.000000","0","0"
"/Engine/EngineMaterials/PhAT_JointLimitMaterial.PhAT_JointLimitMaterial","0","0","7","1","0.000000","0","0"
"/ControlRig/M_Manip.M_Manip","0","0","7","1","0.000000","0","0"
"/Paper2D/DefaultSpriteMaterial.DefaultSpriteMaterial","0","0","42","2","0.000000","0","0"
"/Engine/VREditor/TransformGizmo/TransformGizmoMaterial.TransformGizmoMaterial","0","0","2","1","0.000000","0","0"
"/MovieRenderPipeline/Materials/MovieRenderQueue_WorldDepth.MovieRenderQueue_WorldDepth","0","0","4","1","0.000000","0","0"
"/Engine/EditorMaterials/WorldPartition/WorldPartitionSpatialHashGridPreviewMaterial.WorldPartitionSpatialHashGridPreviewMaterial","0","0","4","1","0.000000","0","0"
"/OpenXR/Devices/M_XRController.M_XRController","0","0","9","3","0.000000","0","12"
"/Engine/EngineSky/VolumetricClouds/m_SimpleVolumetricCloud.m_SimpleVolumetricCloud","0","0","39","1","0.000000","0","0"
"/Interchange/Materials/PhongSurfaceMaterial.PhongSurfaceMaterial","0","0","3","1","0.000000","0","0"
"/Engine/EngineMaterials/DefaultMaterial.DefaultMaterial","0","0","24","1","0.000000","0","0"
"/Engine/EngineMaterials/DefaultPostProcessMaterial.DefaultPostProcessMaterial","0","0","6","1","0.000000","0","0"
"/Engine/EngineMaterials/DefaultDeferredDecalMaterial.DefaultDeferredDecalMaterial","0","0","33","1","0.000000","0","0"
"/Engine/EngineMaterials/DefaultTextMaterialOpaque.DefaultTextMaterialOpaque","0","0","16","1","0.000000","0","0"
"/Engine/EditorMaterials/PreviewShadowIndicatorMaterial.PreviewShadowIndicatorMaterial","0","0","23","1","0.000000","0","0"
"/Engine/EngineSky/M_Sky_Panning_Clouds2.M_Sky_Panning_Clouds2","0","0","2","1","0.000000","0","0"
"/nDisplay/TestPatterns/Statics/M_TPSColoredBars.M_TPSColoredBars","0","4","1","1","3.848625","0","13"
"/Engine/BasicShapes/BasicShapeMaterial.BasicShapeMaterial","0","9","1","1","59.139999","0","50"
"/VirtualProductionUtilities/2D/Materials/Controller/M_Controller_Buttons.M_Controller_Buttons","0","6","1","1","25.983282","0","31"
"/Niagara/DefaultAssets/DefaultSpriteMaterial.DefaultSpriteMaterial","0","30","5","1","44.675236","0","337"
"/VirtualProductionUtilities/2D/Materials/Controller/M_Controller_Body.M_Controller_Body","0","16","2","2","34.901642","0","54"
"/Game/VRTemplate/Blueprints/VR_TOOLS/3D_Letters/LETTERS/default.default","0","6","1","1","33.415962","0","26"
"/nDisplay/LightCard/M_LightCard.M_LightCard","0","3","1","1","4.339578","0","8"
"/Composure/Materials/Media/M_VideoPlateDefault.M_VideoPlateDefault","0","4","1","1","3.120168","0","13"
"/VirtualProductionUtilities/3D/Viewfinder/M_Viewfinder_InfoBG.M_Viewfinder_InfoBG","0","6","1","1","7.185216","0","24"
"/VirtualProductionUtilities/2D/Materials/Controller/M_Picker.M_Picker","0","2","2","1","2.726669","0","3"
"/Game/VRTemplate/Materials/plane.plane","0","3","3","1","13.515874","0","3"
"/VirtualProductionUtilities/2D/Materials/UI/Dynamic/M/M_RoundBorders.M_RoundBorders","0","70","22","7","34.039436","340","2156"
"/SpeedTreeImporter/SpeedTree9/SpeedTreeBillboardMaster.SpeedTreeBillboardMaster","0","0","32","1","0.000000","0","0"
"/SpeedTreeImporter/SpeedTree9/SpeedTreeMaster.SpeedTreeMaster","0","0","32","1","0.000000","0","0"
"/Interchange/Materials/LambertSurfaceMaterial.LambertSurfaceMaterial","0","0","3","1","0.000000","0","0"
"/Interchange/Materials/OrenNayerMaterial.OrenNayerMaterial","0","0","5","1","0.000000","0","0"
"/Game/VRTemplate/Materials/M_TeleportNoise.M_TeleportNoise","0","0","9","1","0.000000","0","0"
"/Game/VRTemplate/Materials/M_TeleportCylinder.M_TeleportCylinder","0","0","15","1","0.000000","0","0"
"/Interchange/gltf/M_Unlit.M_Unlit","0","0","30","2","0.000000","0","0"
"/Interchange/Materials/SubsurfaceMaterial.SubsurfaceMaterial","0","0","3","1","0.000000","0","0"
"/Interchange/gltf/M_Sheen.M_Sheen","0","0","64","4","0.000000","0","0"
"/Interchange/gltf/M_Translucent.M_Translucent","0","0","56","8","0.000000","0","0"
"/Interchange/gltf/M_Opaque.M_Opaque","0","0","128","8","0.000000","0","0"
"/Interchange/Materials/ThinTranslucentMaterial.ThinTranslucentMaterial","0","0","6","1","0.000000","0","0"
"/Interchange/Materials/SheenMaterial.SheenMaterial","0","0","3","1","0.000000","0","0"
"/Interchange/Materials/PBRSurfaceMaterial.PBRSurfaceMaterial","0","0","3","1","0.000000","0","0"
"/Interchange/Materials/ClearCoatMaterial.ClearCoatMaterial","0","0","3","1","0.000000","0","0"
"/Game/Characters/MannequinsXR/Materials/M_Mannequin.M_Mannequin","0","0","30","3","0.000000","0","0"
"/Interchange/gltf/M_Transmission.M_Transmission","0","0","36","4","0.000000","0","0"
"/VirtualProductionUtilities/ScoutingFlare/M_PulsingFlare.M_PulsingFlare","0","3","3","1","3.850900","0","5"
"/Composure/Materials/ChromaKeying/M_SinglePassDespill.M_SinglePassDespill","0","4","4","1","3.996589","0","7"
"/VirtualProductionUtilities/2D/Materials/UI/Dynamic/M/M_ProgressBar.M_ProgressBar","0","9","3","1","5.166027","0","48"
"/VirtualProductionUtilities/Materials/VpRenderTextureMaterial.VPRenderTextureMaterial","0","8","5","2","10.777368","0","16"
"/Game/VRTemplate/Blueprints/VR_TOOLS/particle/material/DefaultSpriteMaterial.DefaultSpriteMaterial","0","35","4","1","141.187805","0","543"
"/VirtualProductionUtilities/2D/Materials/UI/Dynamic/MI/Temperature/M_GradientFade.M_GradientFade","0","10","10","1","5.320177","0","16"
"/Composure/Materials/Media/M_StaticVideoPlateDebug.M_StaticVideoPlateDebug","0","4","4","1","3.794886","0","4"
"/VirtualProductionUtilities/2D/Materials/UI/Icons/User/M_User.M_User","0","20","4","1","18.264002","0","246"
"/VirtualProductionUtilities/Materials/MarkerColorMaterial.MarkerColorMaterial","0","10","3","1","14.521482","0","64"
"/VirtualProductionUtilities/2D/Materials/Bookmark/M_Bookmark_MeasureSource.M_Bookmark_MeasureSource","0","2","2","1","3.002688","0","3"
"/VirtualProductionUtilities/2D/Materials/UI/ContextMenu/Gaffer/M_GafferFlipbook.M_GafferFlipbook","0","10","1","1","6.947975","0","64"
"/Engine/EditorMeshes/ColorCalibrator/M_GreyBall.M_GreyBall","0","6","2","1","27.853455","0","24"
"/VirtualProductionUtilities/2D/Materials/HelpSystem/M_Unlit.M_Unlit","0","15","2","1","21.250422","0","88"
"/VirtualProductionUtilities/LineRenderer/Materials/Mat_Beam.Mat_Beam","0","12","3","1","18.389729","0","44"
"/VirtualProductionUtilities/2D/Materials/UI/ContextMenu/MeasureTool/M_MeasurePanel.M_MeasurePanel","0","13","1","1","13.787302","0","79"
"/Game/VRTemplate/Blueprints/VR_TOOLS/3D_Letters/SUPERTOOL/Black.Black","0","6","1","1","33.558926","0","19"
"/VirtualProductionUtilities/2D/Materials/Controller/M_Controller_Indicator.M_Controller_Indicator","0","13","1","1","14.210346","0","93"
"/Composure/Materials/ChromaKeying/M_SinglePassChromaKeyer.M_SinglePassChromaKeyer","0","4","1","1","3.481164","0","13"
"/VirtualProductionUtilities/Bookmark/CameraFacingTextMaterial.CameraFacingTextMaterial","0","13","1","1","17.738548","0","105"
"/Game/FPWeapon/Materials/M_FPGun.M_FPGun","0","28","1","1","54.759613","0","323"
"/Game/FirstPersonArms/Character/Materials/M_UE4Man_Body.M_UE4Man_Body","0","28","1","1","48.128117","0","322"
"Globals","49","786","0","1","0.000000","0","0"
"/Engine/EngineDebugMaterials/M_SimpleOpaque.M_SimpleOpaque","49","3","3","1","16.728416","0","4"
"/VirtualProductionUtilities/Dolly/M_DollyVP.M_DollyVP","49","12","12","1","24.619291","0","20"
"/AnimationSharing/AnimSharingBase.AnimSharingBase","49","6","6","1","31.339359","0","6"
"/VirtualProductionUtilities/2D/Materials/Bookmark/M_Metal.M_Metal","49","3","3","1","13.959175","0","4"
"/VirtualProductionUtilities/Editor/Meshes/M_ContentWindow.M_ContentWindow","49","6","1","1","22.771738","0","19"
"/VirtualProductionUtilities/Bookmark/M_BookmarkVP.M_BookmarkVP","49","3","1","1","16.923588","0","8"
"/VirtualProductionUtilities/3D/Viewfinder/M_Viewfinder_Frame.M_Viewfinder_Frame","49","6","6","1","31.663774","0","6"
"/Engine/VREditor/FloatingText/LineMaterial.LineMaterial","49","2","2","1","3.247399","0","2"
"/Composure/Materials/PassSetup/ComposureBeforeTranslucencySetBlack.ComposureBeforeTranslucencySetBlack","49","4","1","1","4.689072","0","11"
"/Composure/Materials/ReplaceTonemapper/ComposureReplaceTonemapperByTexture.ComposureReplaceTonemapperByTexture","49","4","4","1","3.141658","0","4"
"/Composure/Materials/ReplaceTonemapper/ComposureReplaceTonemapperComposeBloom.ComposureReplaceTonemapperComposeBloom","49","4","4","1","3.221475","0","6"
"/Composure/Materials/Compositing/M_AlphaScale.M_AlphaScale","49","4","4","1","2.955079","0","7"
"/Composure/Materials/PassSetup/ComposureSimpleSetupMaterial.ComposureSimpleSetupMaterial","49","4","4","1","2.825911","0","4"
"/nDisplay/TestPatterns/Animated/M_TPAStrips.M_TPAStrips","49","4","1","1","3.215262","0","11"
"/nDisplay/TestPatterns/Animated/M_TPAMirroredChevron.M_TPAMirroredChevron","49","4","4","1","2.973938","0","5"
"/nDisplay/TestPatterns/Animated/M_TPAGrid.M_TPAGrid","49","4","4","1","2.808018","0","7"
"/nDisplay/TestPatterns/Animated/M_TPAChevron.M_TPAChevron","49","4","1","1","3.049921","0","13"
"/nDisplay/TestPatterns/Statics/M_TPSGridCircles.M_TPSGridCircles","49","4","2","1","3.480219","0","11"
"/nDisplay/TestPatterns/Statics/M_TPSGrayBars.M_TPSGrayBars","49","4","1","1","2.797095","0","10"
"/nDisplay/TestPatterns/Statics/M_TPSColoredBars.M_TPSColoredBars","49","4","2","1","2.822668","0","11"
"/nDisplay/TestPatterns/Animated/M_TPARadar.M_TPARadar","49","4","2","1","2.880057","0","11"
"/Game/VRTemplate/Blueprints/VR_TOOLS/3D_Letters/LETTERS/default.default","49","6","1","1","26.792429","0","24"
"/Engine/BasicShapes/BasicShapeMaterial.BasicShapeMaterial","49","11","1","1","62.681194","0","37"
"/Engine/EngineMeshes/BackgroundMaterial.BackgroundMaterial","49","6","1","1","33.244072","0","17"
"/Game/VRTemplate/Materials/plane.plane","49","3","1","1","18.826754","0","8"
"/Game/VRTemplate/Blueprints/VR_TOOLS/particle/material/DefaultSpriteMaterial.DefaultSpriteMaterial","49","35","4","1","65.596275","0","402"
"/nDisplay/LightCard/M_LightCard.M_LightCard","49","3","3","1","3.700406","0","4"
"/Composure/Materials/Media/M_VideoPlateDefault.M_VideoPlateDefault","49","4","1","1","3.230324","0","13"
"/Composure/Materials/Media/M_StaticVideoPlateDebug.M_StaticVideoPlateDebug","49","4","1","1","3.796247","0","11"
"/Composure/Materials/ChromaKeying/M_SinglePassDespill.M_SinglePassDespill","49","4","1","1","3.511145","0","11"
"/VirtualProductionUtilities/2D/Materials/UI/Dynamic/MI/Temperature/M_GradientFade.M_GradientFade","49","10","1","1","7.502004","0","55"
"/VirtualProductionUtilities/ScoutingFlare/M_PulsingFlare.M_PulsingFlare","49","3","1","1","4.445795","0","8"
"/VirtualProductionUtilities/2D/Materials/UI/Dynamic/M/M_ProgressBar.M_ProgressBar","49","9","1","1","7.330666","0","47"
"/VirtualProductionUtilities/Materials/VpRenderTextureMaterial.VPRenderTextureMaterial","49","8","2","2","12.529152","0","26"
"/Game/VRTemplate/Blueprints/VR_TOOLS/3D_Letters/SUPERTOOL/Black.Black","49","6","1","1","31.817329","0","26"
"/Engine/EditorMeshes/ColorCalibrator/M_GreyBall.M_GreyBall","49","6","1","1","32.523224","0","26"
"/VirtualProductionUtilities/2D/Materials/HelpSystem/M_Unlit.M_Unlit","49","15","5","1","17.836067","0","137"
"/VirtualProductionUtilities/2D/Materials/UI/Icons/User/M_User.M_User","49","22","1","1","21.078344","0","188"
"/VirtualProductionUtilities/2D/Materials/UI/ContextMenu/M_Interactor_Cursor.M_Interactor_Cursor","49","2","2","1","2.281765","0","3"
"/VirtualProductionUtilities/LineRenderer/Materials/Mat_Beam.Mat_Beam","49","12","1","1","12.757562","0","85"
"/VirtualProductionUtilities/3D/Viewfinder/M_Viewfinder_InfoBG.M_Viewfinder_InfoBG","49","6","2","1","6.550004","0","19"
"/VirtualProductionUtilities/Materials/MarkerColorMaterial.MarkerColorMaterial","49","10","5","1","11.104361","0","51"
"/VirtualProductionUtilities/2D/Materials/Tools/Marker/M_Erasor.M_Erasor","49","3","3","1","12.431223","0","3"
"/VirtualProductionUtilities/2D/Materials/Controller/M_Controller_Buttons.M_Controller_Buttons","49","6","1","1","19.848476","0","23"
"/VirtualProductionUtilities/2D/Materials/Controller/M_Picker.M_Picker","49","2","2","1","3.257879","0","3"
"/VirtualProductionUtilities/2D/Materials/UI/ContextMenu/MeasureTool/M_MeasurePanel.M_MeasurePanel","49","15","2","1","16.894875","0","127"
"/VirtualProductionUtilities/2D/Materials/Bookmark/M_Bookmark_Light.M_Bookmark_Light","49","2","2","1","2.327727","0","3"
"/VirtualProductionUtilities/2D/Materials/Bookmark/M_Bookmark_MeasureSource.M_Bookmark_MeasureSource","49","2","2","1","2.099793","0","3"
"/VirtualProductionUtilities/2D/Materials/Controller/M_Controller_Indicator.M_Controller_Indicator","49","15","1","1","16.238136","0","108"
"/VirtualProductionUtilities/2D/Materials/Controller/M_Controller_Touchpad.M_Controller_Touchpad","49","3","1","1","3.400998","0","8"
"/nDisplay/LightCard/M_UVIndicator.M_UVIndicator","49","3","3","1","3.340036","0","4"
"/VirtualProductionUtilities/2D/Materials/Controller/M_SettingsButton.M_SettingsButton","49","2","2","1","2.131395","0","3"
"/ColorCorrectRegions/Materials/M_ColorCorrectRegionTransparentPreview.M_ColorCorrectRegionTransparentPreview","49","3","3","1","3.995765","0","4"
"/VirtualProductionUtilities/2D/Materials/Controller/M_Controller_Body.M_Controller_Body","49","16","9","2","32.589561","0","41"
"/Niagara/DefaultAssets/DefaultSpriteMaterial.DefaultSpriteMaterial","49","30","4","1","29.932659","0","194"
"/Game/VRTemplate/Blueprints/VR_TOOLS/particle/material/Paint.Paint","49","6","2","1","26.455894","0","17"
"/VirtualProductionUtilities/2D/Materials/Controller/M_Controller_Body_Rift.M_Controller_Body_Rift","49","16","12","2","34.304192","0","29"
"/nDisplay/Materials/Preview/M_ProjPolicyPreview.M_ProjPolicyPreview","49","3","1","1","3.154702","0","8"
"/VirtualProductionUtilities/2D/Materials/Controller/M_Controller_ColorWheel_RiftS.M_Controller_ColorWheel_RiftS","49","15","1","1","13.000227","0","73"
"/nDisplay/TestPatterns/Statics/M_TPSCircles.M_TPSCircles","49","4","4","1","3.126834","0","4"
"/VirtualProductionUtilities/2D/Materials/UI/Icons/Marker/M_Marker.M_Marker","49","22","1","1","16.967098","0","69"
"/Engine/VREditor/Fonts/VRTextMaterial.VRTextMaterial","49","15","2","1","13.605151","0","47"
"/Engine/VREditor/UI/M_ContentWindow.M_ContentWindow","49","13","5","1","20.826607","0","41"
"/VirtualProductionUtilities/2D/Materials/Tools/Handheld/M_Handheld.M_Handheld","49","3","3","1","11.948833","0","4"
"/VirtualProductionUtilities/2D/Materials/Tools/Tripod/M_Tripod.M_Tripod","49","3","3","1","12.465205","0","4"
"/VirtualProductionUtilities/2D/Materials/UI/Icons/Flag/M_Flag.M_Flag","49","22","20","1","16.612864","0","70"
"/VirtualProductionUtilities/2D/Materials/UI/Icons/Camera/M_Camera.M_Camera","49","22","21","1","16.350565","0","71"
"/VirtualProductionUtilities/VR/Textures/IconFlyingMode_Mat.IconFlyingMode_Mat","49","16","9","1","22.847633","0","47"
"/Game/VRTemplate/Materials/M_Projectile.M_Projectile","49","3","3","1","12.020056","0","5"
"/Game/StarterContent/Materials/M_Brick_Clay_New.M_Brick_Clay_New","49","3","3","1","43.998375","8","49"
"/VirtualProductionUtilities/2D/Materials/Tools/Gaffer/M_Gaffer.M_Gaffer","49","3","3","1","11.906528","0","4"
"/VirtualProductionUtilities/Materials/WidgetPostProcessMaterial.WidgetPostProcessMaterial","49","4","4","1","2.939325","0","6"
"/Engine/VREditor/LaserPointer/LaserPointerMaterial.LaserPointerMaterial","49","14","5","2","21.147736","0","60"
"/VirtualProductionUtilities/Materials/M_UnlitText.M_UnlitText","49","15","17","1","13.156388","0","33"
"","49","1","0","1","0.000000","7","0"
"/ControlRig/Controls/ControlRigGizmoMaterial.ControlRigGizmoMaterial","49","0","2","1","0.000000","0","0"
"/Engine/EngineDebugMaterials/DebugEditorMaterial.DebugEditorMaterial","49","0","6","1","0.000000","0","0"
"/Engine/EditorMaterials/PhAT_UnselectedMaterial.PhAT_UnselectedMaterial","49","0","3","1","0.000000","0","0"
"/MeshModelingToolset/Materials/M_DynamicMeshComponentVtxColor.M_DynamicMeshComponentVtxColor","49","0","9","1","0.000000","0","0"
"/Engine/EditorMaterials/PhAT_NoCollisionMaterial.PhAT_NoCollisionMaterial","49","0","3","1","0.000000","0","0"
"/Engine/EngineDebugMaterials/DebugMeshMaterial.DebugMeshMaterial","49","0","5","1","0.000000","0","0"
"/Engine/EngineMaterials/RemoveSurfaceMaterial.RemoveSurfaceMaterial","49","0","2","1","0.000000","0","0"
"/MovieRenderPipeline/Materials/MoviePipeline_StencilCutout.MoviePipeline_StencilCutout","49","0","19","1","0.000000","0","0"
"/Engine/EngineMaterials/GizmoMaterial.GizmoMaterial","49","0","6","1","0.000000","0","0"
"/ControlRig/Controls/ControlRigXRayMaterial.ControlRigXRayMaterial","49","0","7","1","0.000000","0","0"
"/Engine/EngineMaterials/WorldGridMaterial.WorldGridMaterial","49","0","518","1","0.000000","0","0"
"/MovieRenderPipeline/Materials/MovieRenderQueue_MotionVectors.MovieRenderQueue_MotionVectors","49","0","4","1","0.000000","0","0"
"/Engine/EngineMaterials/Widget3DPassThrough.Widget3DPassThrough","49","0","50","6","0.000000","0","3"
"/Engine/EngineDebugMaterials/M_VolumeRenderSphereTracePP.M_VolumeRenderSphereTracePP","49","0","4","1","0.000000","0","0"
"/Engine/EngineMaterials/M_InvalidLightmapSettings.M_InvalidLightmapSettings","49","0","6","1","0.000000","0","0"
"/Engine/EngineMaterials/EmissiveMeshMaterial.EmissiveMeshMaterial","49","0","5","1","0.000000","0","0"
"/Game/VRTemplate/Materials/DefaultRibbonMaterial_NoGradient.DefaultRibbonMaterial_NoGradient","49","0","15","1","0.000000","0","0"
"/Engine/VREditor/Devices/Generic/GenericHMDMaterial.GenericHMDMaterial","49","0","4","1","0.000000","0","0"
"/Game/VRTemplate/Materials/M_VRCursor.M_VRCursor","49","0","2","1","0.000000","0","0"
"/Engine/EditorLandscapeResources/SplineEditorMeshMat.SplineEditorMeshMat","49","0","12","1","0.000000","0","0"
"/Engine/EngineDebugMaterials/M_SimpleUnlitTranslucent.M_SimpleUnlitTranslucent","49","0","3","1","0.000000","0","0"
"/Engine/EditorMaterials/Camera/CineMat.CineMat","49","0","6","1","0.000000","0","0"
"/Engine/VREditor/TransformGizmo/Xray.Xray","49","0","3","1","0.000000","0","0"
"/Engine/VREditor/TransformGizmo/Main.Main","49","0","3","1","0.000000","0","0"
"/Engine/VREditor/TransformGizmo/TranslucentTransformGizmoMaterial.TranslucentTransformGizmoMaterial","49","0","3","1","0.000000","0","0"
"/Engine/EngineMaterials/DefaultLightFunctionMaterial.DefaultLightFunctionMaterial","49","0","23","1","0.000000","0","0"
"/Interchange/Materials/UnlitMaterial.UnlitMaterial","49","0","2","1","0.000000","0","0"
"/Engine/EngineMaterials/FlattenMaterial_WS_Normal_VT.FlattenMaterial_WS_Normal_VT","49","0","8","1","0.000000","0","0"
"/Engine/EngineMaterials/FlattenMaterial_VT.FlattenMaterial_VT","49","0","8","1","0.000000","0","0"
"/MovieRenderPipeline/Blueprints/M_MoviePipelineRenderPreview.M_MoviePipelineRenderPreview","49","0","9","1","0.000000","0","0"
"/Engine/EngineMaterials/FlattenMaterial.FlattenMaterial","49","0","8","1","0.000000","0","0"
"/Engine/EngineMaterials/PhAT_JointLimitMaterial.PhAT_JointLimitMaterial","49","0","7","1","0.000000","0","0"
"/ControlRig/M_Manip.M_Manip","49","0","7","1","0.000000","0","0"
"/Paper2D/DefaultSpriteMaterial.DefaultSpriteMaterial","49","0","46","2","0.000000","0","0"
"/Engine/VREditor/TransformGizmo/TransformGizmoMaterial.TransformGizmoMaterial","49","0","2","1","0.000000","0","0"
"/MovieRenderPipeline/Materials/MovieRenderQueue_WorldDepth.MovieRenderQueue_WorldDepth","49","0","4","1","0.000000","0","0"
"/Engine/EditorMaterials/WorldPartition/WorldPartitionSpatialHashGridPreviewMaterial.WorldPartitionSpatialHashGridPreviewMaterial","49","0","4","1","0.000000","0","0"
"/OpenXR/Devices/M_XRController.M_XRController","49","0","9","3","0.000000","0","12"
"/Engine/EngineSky/VolumetricClouds/m_SimpleVolumetricCloud.m_SimpleVolumetricCloud","49","0","39","1","0.000000","0","0"
"/Interchange/Materials/PhongSurfaceMaterial.PhongSurfaceMaterial","49","0","3","1","0.000000","0","0"
"/Engine/EngineMaterials/DefaultMaterial.DefaultMaterial","49","0","24","1","0.000000","0","0"
"/Engine/EngineMaterials/DefaultPostProcessMaterial.DefaultPostProcessMaterial","49","0","6","1","0.000000","0","0"
"/Engine/EngineMaterials/DefaultDeferredDecalMaterial.DefaultDeferredDecalMaterial","49","0","33","1","0.000000","0","0"
"/Engine/EngineMaterials/DefaultTextMaterialOpaque.DefaultTextMaterialOpaque","49","0","18","1","0.000000","0","0"
"/Engine/EditorMaterials/PreviewShadowIndicatorMaterial.PreviewShadowIndicatorMaterial","49","0","23","1","0.000000","0","0"
"/Engine/EngineSky/M_Sky_Panning_Clouds2.M_Sky_Panning_Clouds2","49","0","2","1","0.000000","0","0"
"/Composure/Materials/ChromaKeying/M_SinglePassChromaKeyer.M_SinglePassChromaKeyer","49","4","1","1","4.194919","0","13"
"/VirtualProductionUtilities/2D/Materials/UI/Dynamic/M/M_RoundBorders.M_RoundBorders","49","70","23","7","38.256916","0","253"
"/Game/FirstPersonArms/Character/Materials/M_UE4Man_Body.M_UE4Man_Body","49","32","2","1","66.846954","0","610"
"/Game/FPWeapon/Materials/M_FPGun.M_FPGun","49","32","7","1","58.042332","0","482"
"/VirtualProductionUtilities/Bookmark/CameraFacingTextMaterial.CameraFacingTextMaterial","49","15","3","1","18.689579","0","113"
"/VirtualProductionUtilities/2D/Materials/UI/ContextMenu/Gaffer/M_GafferFlipbook.M_GafferFlipbook","49","10","6","1","6.788997","0","28"
"/SpeedTreeImporter/SpeedTree9/SpeedTreeBillboardMaster.SpeedTreeBillboardMaster","49","0","36","1","0.000000","0","0"
"/SpeedTreeImporter/SpeedTree9/SpeedTreeMaster.SpeedTreeMaster","49","0","36","1","0.000000","0","0"
"/Interchange/Materials/LambertSurfaceMaterial.LambertSurfaceMaterial","49","0","3","1","0.000000","0","0"
"/Interchange/Materials/OrenNayerMaterial.OrenNayerMaterial","49","0","5","1","0.000000","0","0"
"/Game/VRTemplate/Materials/M_TeleportNoise.M_TeleportNoise","49","0","9","1","0.000000","0","0"
"/Game/VRTemplate/Materials/M_TeleportCylinder.M_TeleportCylinder","49","0","15","1","0.000000","0","0"
"/Interchange/gltf/M_Unlit.M_Unlit","49","0","34","2","0.000000","0","0"
"/Interchange/Materials/SubsurfaceMaterial.SubsurfaceMaterial","49","0","3","1","0.000000","0","0"
"/Interchange/gltf/M_Sheen.M_Sheen","49","0","72","4","0.000000","0","0"
"/Interchange/gltf/M_Translucent.M_Translucent","49","0","56","8","0.000000","0","0"
"/Interchange/gltf/M_Opaque.M_Opaque","49","0","144","8","0.000000","0","0"
"/Interchange/Materials/ThinTranslucentMaterial.ThinTranslucentMaterial","49","0","6","1","0.000000","0","0"
"/Interchange/Materials/SheenMaterial.SheenMaterial","49","0","3","1","0.000000","0","0"
"/Interchange/Materials/PBRSurfaceMaterial.PBRSurfaceMaterial","49","0","3","1","0.000000","0","0"
"/Interchange/Materials/ClearCoatMaterial.ClearCoatMaterial","49","0","3","1","0.000000","0","0"
"/Game/Characters/MannequinsXR/Materials/M_Mannequin.M_Mannequin","49","0","30","3","0.000000","0","0"
"/Interchange/gltf/M_Transmission.M_Transmission","49","0","36","4","0.000000","0","0"
