"Path","Platform","Compiled","Cooked","Permutations","Compiletime","CompiledDouble","CookedDouble"
"/ControlRig/Controls/ControlRigGizmoMaterial.ControlRigGizmoMaterial","0","0","2","1","0.000000","0","0"
"/VirtualProductionUtilities/Bookmark/M_BookmarkVP.M_BookmarkVP","0","0","3","1","0.000000","0","0"
"/VirtualProductionUtilities/2D/Materials/Bookmark/M_Metal.M_Metal","0","0","3","1","0.000000","0","0"
"/Engine/EngineDebugMaterials/DebugEditorMaterial.DebugEditorMaterial","0","0","6","1","0.000000","0","0"
"/AnimationSharing/AnimSharingBase.AnimSharingBase","0","0","6","1","0.000000","0","0"
"/VirtualProductionUtilities/Dolly/M_DollyVP.M_DollyVP","0","0","12","1","0.000000","0","0"
"/Engine/EngineDebugMaterials/M_SimpleOpaque.M_SimpleOpaque","0","0","3","1","0.000000","0","0"
"/VirtualProductionUtilities/Editor/Meshes/M_ContentWindow.M_ContentWindow","0","0","7","1","0.000000","0","0"
"/VirtualProductionUtilities/3D/Viewfinder/M_Viewfinder_Frame.M_Viewfinder_Frame","0","0","6","1","0.000000","0","0"
"/Engine/VREditor/FloatingText/LineMaterial.LineMaterial","0","0","2","1","0.000000","0","0"
"/Engine/EditorMaterials/PhAT_NoCollisionMaterial.PhAT_NoCollisionMaterial","0","0","3","1","0.000000","0","0"
"/Engine/EditorMaterials/PhAT_UnselectedMaterial.PhAT_UnselectedMaterial","0","0","3","1","0.000000","0","0"
"/MeshModelingToolset/Materials/M_DynamicMeshComponentVtxColor.M_DynamicMeshComponentVtxColor","0","0","9","1","0.000000","0","0"
"/Engine/EngineDebugMaterials/DebugMeshMaterial.DebugMeshMaterial","0","0","5","1","0.000000","0","0"
"/Engine/EngineMaterials/RemoveSurfaceMaterial.RemoveSurfaceMaterial","0","0","2","1","0.000000","0","0"
"/MovieRenderPipeline/Materials/MoviePipeline_StencilCutout.MoviePipeline_StencilCutout","0","0","17","1","0.000000","0","0"
"/Engine/EngineMaterials/GizmoMaterial.GizmoMaterial","0","0","6","1","0.000000","0","0"
"/nDisplay/TestPatterns/Animated/M_TPAStrips.M_TPAStrips","0","0","4","1","0.000000","0","0"
"/nDisplay/TestPatterns/Animated/M_TPARadar.M_TPARadar","0","0","4","1","0.000000","0","0"
"/Composure/Materials/ReplaceTonemapper/ComposureReplaceTonemapperByTexture.ComposureReplaceTonemapperByTexture","0","0","4","1","0.000000","0","0"
"/Composure/Materials/ReplaceTonemapper/ComposureReplaceTonemapperComposeBloom.ComposureReplaceTonemapperComposeBloom","0","0","4","1","0.000000","0","0"
"/Composure/Materials/Compositing/M_AlphaScale.M_AlphaScale","0","0","4","1","0.000000","0","0"
"/Composure/Materials/PassSetup/ComposureSimpleSetupMaterial.ComposureSimpleSetupMaterial","0","0","4","1","0.000000","0","0"
"/Composure/Materials/PassSetup/ComposureBeforeTranslucencySetBlack.ComposureBeforeTranslucencySetBlack","0","0","4","1","0.000000","0","0"
"/ControlRig/Controls/ControlRigXRayMaterial.ControlRigXRayMaterial","0","0","7","1","0.000000","0","0"
"/ColorCorrectRegions/Materials/M_ColorCorrectRegionTransparentPreview.M_ColorCorrectRegionTransparentPreview","0","0","3","1","0.000000","0","0"
"/nDisplay/TestPatterns/Animated/M_TPAMirroredChevron.M_TPAMirroredChevron","0","0","4","1","0.000000","0","0"
"/nDisplay/TestPatterns/Animated/M_TPAGrid.M_TPAGrid","0","0","4","1","0.000000","0","0"
"/nDisplay/TestPatterns/Animated/M_TPAChevron.M_TPAChevron","0","0","4","1","0.000000","0","0"
"/nDisplay/TestPatterns/Statics/M_TPSGridCircles.M_TPSGridCircles","0","0","4","1","0.000000","0","0"
"/nDisplay/TestPatterns/Statics/M_TPSGrayBars.M_TPSGrayBars","0","0","4","1","0.000000","0","0"
"/nDisplay/TestPatterns/Statics/M_TPSColoredBars.M_TPSColoredBars","0","0","4","1","0.000000","0","0"
"/nDisplay/TestPatterns/Statics/M_TPSCircles.M_TPSCircles","0","0","4","1","0.000000","0","0"
"/Engine/EditorLandscapeResources/SplineEditorMeshMat.SplineEditorMeshMat","0","0","12","1","0.000000","0","0"
"/Engine/EngineDebugMaterials/M_SimpleUnlitTranslucent.M_SimpleUnlitTranslucent","0","0","3","1","0.000000","0","0"
"/Engine/EditorMaterials/Camera/CineMat.CineMat","0","0","6","1","0.000000","0","0"
"/Engine/VREditor/TransformGizmo/Xray.Xray","0","0","3","1","0.000000","0","0"
"/Engine/VREditor/TransformGizmo/Main.Main","0","0","3","1","0.000000","0","0"
"/Engine/VREditor/TransformGizmo/TranslucentTransformGizmoMaterial.TranslucentTransformGizmoMaterial","0","0","3","1","0.000000","0","0"
"/Engine/EngineMaterials/DefaultLightFunctionMaterial.DefaultLightFunctionMaterial","0","0","23","1","0.000000","0","0"
"/Interchange/Materials/UnlitMaterial.UnlitMaterial","0","0","2","1","0.000000","0","0"
"/Game/VRTemplate/Blueprints/VR_TOOLS/3D_Letters/SUPERTOOL/Black.Black","0","0","6","1","0.000000","0","0"
"/Game/VRTemplate/Materials/plane.plane","0","0","3","1","0.000000","0","0"
"/Game/VRTemplate/Materials/DefaultRibbonMaterial_NoGradient.DefaultRibbonMaterial_NoGradient","0","0","15","1","0.000000","0","0"
"/Engine/VREditor/Devices/Generic/GenericHMDMaterial.GenericHMDMaterial","0","0","4","1","0.000000","0","0"
"/Game/VRTemplate/Materials/M_VRCursor.M_VRCursor","0","0","2","1","0.000000","0","0"
"/Game/VRTemplate/Blueprints/VR_TOOLS/particle/material/Paint.Paint","0","0","6","1","0.000000","0","0"
"/Niagara/DefaultAssets/DefaultSpriteMaterial.DefaultSpriteMaterial","0","0","35","1","0.000000","0","0"
"/Engine/EditorMeshes/ColorCalibrator/M_GreyBall.M_GreyBall","0","0","6","1","0.000000","0","0"
"/Engine/EngineMeshes/BackgroundMaterial.BackgroundMaterial","0","0","6","1","0.000000","0","0"
"/Engine/BasicShapes/BasicShapeMaterial.BasicShapeMaterial","0","0","9","1","0.000000","0","0"
"/Game/VRTemplate/Blueprints/VR_TOOLS/particle/material/DefaultSpriteMaterial.DefaultSpriteMaterial","0","0","40","1","0.000000","0","0"
"/VirtualProductionUtilities/Materials/VpRenderTextureMaterial.VPRenderTextureMaterial","0","0","8","2","0.000000","0","0"
"/VirtualProductionUtilities/2D/Materials/UI/Dynamic/M/M_ProgressBar.M_ProgressBar","0","0","9","1","0.000000","0","0"
"/MovieRenderPipeline/Blueprints/M_MoviePipelineRenderPreview.M_MoviePipelineRenderPreview","0","0","9","1","0.000000","0","0"
"/Engine/EngineMaterials/PhAT_JointLimitMaterial.PhAT_JointLimitMaterial","0","0","7","1","0.000000","0","0"
"/ControlRig/M_Manip.M_Manip","0","0","7","1","0.000000","0","0"
"/Engine/EngineMaterials/EmissiveMeshMaterial.EmissiveMeshMaterial","0","0","5","1","0.000000","0","0"
"/VirtualProductionUtilities/2D/Materials/HelpSystem/M_Unlit.M_Unlit","0","0","18","1","0.000000","0","0"
"/VirtualProductionUtilities/ScoutingFlare/M_PulsingFlare.M_PulsingFlare","0","0","3","1","0.000000","0","0"
"/VirtualProductionUtilities/Materials/MarkerColorMaterial.MarkerColorMaterial","0","0","12","1","0.000000","0","0"
"/VirtualProductionUtilities/3D/Viewfinder/M_Viewfinder_InfoBG.M_Viewfinder_InfoBG","0","0","6","1","0.000000","0","0"
"/Engine/VREditor/UI/M_ContentWindow.M_ContentWindow","0","0","12","1","0.000000","0","0"
"/Engine/VREditor/Fonts/VRTextMaterial.VRTextMaterial","0","0","15","1","0.000000","0","0"
"/Game/VRTemplate/Materials/M_Projectile.M_Projectile","0","0","3","1","0.000000","0","0"
"/VirtualProductionUtilities/VR/Textures/IconFlyingMode_Mat.IconFlyingMode_Mat","0","0","16","1","0.000000","0","0"
"/VirtualProductionUtilities/2D/Materials/UI/Icons/Camera/M_Camera.M_Camera","0","0","22","1","0.000000","0","0"
"/VirtualProductionUtilities/2D/Materials/UI/Icons/Flag/M_Flag.M_Flag","0","0","22","1","0.000000","0","0"
"/VirtualProductionUtilities/2D/Materials/Tools/Tripod/M_Tripod.M_Tripod","0","0","3","1","0.000000","0","0"
"/VirtualProductionUtilities/2D/Materials/Tools/Handheld/M_Handheld.M_Handheld","0","0","3","1","0.000000","0","0"
"/VirtualProductionUtilities/2D/Materials/UI/Icons/Marker/M_Marker.M_Marker","0","0","22","1","0.000000","0","0"
"/VirtualProductionUtilities/2D/Materials/Controller/M_Controller_ColorWheel_RiftS.M_Controller_ColorWheel_RiftS","0","0","15","1","0.000000","0","0"
"/VirtualProductionUtilities/2D/Materials/Controller/M_Controller_Body_Rift.M_Controller_Body_Rift","0","0","16","2","0.000000","0","0"
"/VirtualProductionUtilities/2D/Materials/Controller/M_Controller_Body.M_Controller_Body","0","0","16","2","0.000000","0","0"
"/VirtualProductionUtilities/2D/Materials/Controller/M_SettingsButton.M_SettingsButton","0","0","2","1","0.000000","0","0"
"/VirtualProductionUtilities/2D/Materials/Controller/M_Controller_Touchpad.M_Controller_Touchpad","0","0","3","1","0.000000","0","0"
"/VirtualProductionUtilities/2D/Materials/Controller/M_Controller_Indicator.M_Controller_Indicator","0","0","15","1","0.000000","0","0"
"/VirtualProductionUtilities/2D/Materials/Bookmark/M_Bookmark_MeasureSource.M_Bookmark_MeasureSource","0","0","2","1","0.000000","0","0"
"/VirtualProductionUtilities/2D/Materials/Bookmark/M_Bookmark_Light.M_Bookmark_Light","0","0","2","1","0.000000","0","0"
"/VirtualProductionUtilities/2D/Materials/UI/ContextMenu/MeasureTool/M_MeasurePanel.M_MeasurePanel","0","0","15","1","0.000000","0","0"
"/VirtualProductionUtilities/2D/Materials/Controller/M_Picker.M_Picker","0","0","2","1","0.000000","0","0"
"/VirtualProductionUtilities/2D/Materials/Controller/M_Controller_Buttons.M_Controller_Buttons","0","0","7","1","0.000000","0","0"
"/VirtualProductionUtilities/2D/Materials/Tools/Marker/M_Erasor.M_Erasor","0","0","3","1","0.000000","0","0"
"/VirtualProductionUtilities/LineRenderer/Materials/Mat_Beam.Mat_Beam","0","0","12","1","0.000000","0","0"
"/VirtualProductionUtilities/2D/Materials/UI/ContextMenu/M_Interactor_Cursor.M_Interactor_Cursor","0","0","2","1","0.000000","0","0"
"/VirtualProductionUtilities/2D/Materials/UI/Icons/User/M_User.M_User","0","0","22","1","0.000000","0","0"
"/VirtualProductionUtilities/2D/Materials/UI/Dynamic/MI/Temperature/M_GradientFade.M_GradientFade","0","0","10","1","0.000000","0","0"
"/Engine/EngineMaterials/FlattenMaterial_WS_Normal_VT.FlattenMaterial_WS_Normal_VT","0","0","6","1","0.000000","0","0"
"/Engine/EngineMaterials/FlattenMaterial_VT.FlattenMaterial_VT","0","0","6","1","0.000000","0","0"
"/Engine/EngineMaterials/M_InvalidLightmapSettings.M_InvalidLightmapSettings","0","0","6","1","0.000000","0","0"
"/Engine/EngineMaterials/FlattenMaterial.FlattenMaterial","0","0","6","1","0.000000","0","0"
"/Composure/Materials/ChromaKeying/M_SinglePassDespill.M_SinglePassDespill","0","0","4","1","0.000000","0","0"
"/Composure/Materials/Media/M_StaticVideoPlateDebug.M_StaticVideoPlateDebug","0","0","4","1","0.000000","0","0"
"/Composure/Materials/Media/M_VideoPlateDefault.M_VideoPlateDefault","0","0","4","1","0.000000","0","0"
"/Paper2D/DefaultSpriteMaterial.DefaultSpriteMaterial","0","0","42","2","0.000000","0","0"
"/Engine/EngineDebugMaterials/M_VolumeRenderSphereTracePP.M_VolumeRenderSphereTracePP","0","0","4","1","0.000000","0","0"
"/nDisplay/Materials/Preview/M_ProjPolicyPreview.M_ProjPolicyPreview","0","0","3","1","0.000000","0","0"
"/nDisplay/LightCard/M_LightCard.M_LightCard","0","0","3","1","0.000000","0","0"
"/VirtualProductionUtilities/Materials/M_UnlitText.M_UnlitText","0","0","15","1","0.000000","0","0"
"/Interchange/Materials/PhongSurfaceMaterial.PhongSurfaceMaterial","0","0","3","1","0.000000","0","0"
"/Engine/EngineMaterials/WorldGridMaterial.WorldGridMaterial","0","0","314","1","0.000000","0","0"
"/MovieRenderPipeline/Materials/MovieRenderQueue_MotionVectors.MovieRenderQueue_MotionVectors","0","0","4","1","0.000000","0","0"
"/nDisplay/LightCard/M_UVIndicator.M_UVIndicator","0","0","3","1","0.000000","0","0"
"/Engine/VREditor/LaserPointer/LaserPointerMaterial.LaserPointerMaterial","0","0","14","2","0.000000","0","0"
"/Engine/VREditor/TransformGizmo/TransformGizmoMaterial.TransformGizmoMaterial","0","0","2","1","0.000000","0","0"
"/MovieRenderPipeline/Materials/MovieRenderQueue_WorldDepth.MovieRenderQueue_WorldDepth","0","0","4","1","0.000000","0","0"
"/Engine/EditorMaterials/WorldPartition/WorldPartitionSpatialHashGridPreviewMaterial.WorldPartitionSpatialHashGridPreviewMaterial","0","0","4","1","0.000000","0","0"
"/OpenXR/Devices/M_XRController.M_XRController","0","0","9","3","0.000000","0","9"
"/VirtualProductionUtilities/Materials/WidgetPostProcessMaterial.WidgetPostProcessMaterial","0","0","4","1","0.000000","0","0"
"/Engine/EngineMaterials/Widget3DPassThrough.Widget3DPassThrough","0","0","46","6","0.000000","0","3"
"/VirtualProductionUtilities/2D/Materials/Tools/Gaffer/M_Gaffer.M_Gaffer","0","0","3","1","0.000000","0","0"
"/Engine/EngineSky/VolumetricClouds/m_SimpleVolumetricCloud.m_SimpleVolumetricCloud","0","0","39","1","0.000000","0","0"
"/Engine/EngineMaterials/DefaultPostProcessMaterial.DefaultPostProcessMaterial","0","0","6","1","0.000000","0","0"
"/Engine/EngineMaterials/DefaultDeferredDecalMaterial.DefaultDeferredDecalMaterial","0","0","33","1","0.000000","0","0"
"/Engine/EngineMaterials/DefaultMaterial.DefaultMaterial","0","0","24","1","0.000000","0","0"
"/Engine/EngineMaterials/DefaultTextMaterialOpaque.DefaultTextMaterialOpaque","0","0","16","1","0.000000","0","0"
"/Engine/EditorMaterials/PreviewShadowIndicatorMaterial.PreviewShadowIndicatorMaterial","0","0","23","1","0.000000","0","0"
"/Game/StarterContent/Materials/M_Brick_Clay_New.M_Brick_Clay_New","0","0","3","1","0.000000","0","8"
"/Engine/EngineSky/M_Sky_Panning_Clouds2.M_Sky_Panning_Clouds2","0","0","2","1","0.000000","0","0"
"/VirtualProductionUtilities/2D/Materials/UI/Dynamic/M/M_RoundBorders.M_RoundBorders","0","0","70","7","0.000000","0","340"
"/SpeedTreeImporter/SpeedTree9/SpeedTreeBillboardMaster.SpeedTreeBillboardMaster","0","0","32","1","0.000000","0","0"
"/SpeedTreeImporter/SpeedTree9/SpeedTreeMaster.SpeedTreeMaster","0","0","32","1","0.000000","0","0"
"/Composure/Materials/ChromaKeying/M_SinglePassChromaKeyer.M_SinglePassChromaKeyer","0","0","4","1","0.000000","0","0"
"/Interchange/Materials/LambertSurfaceMaterial.LambertSurfaceMaterial","0","0","3","1","0.000000","0","0"
"/Interchange/Materials/OrenNayerMaterial.OrenNayerMaterial","0","0","5","1","0.000000","0","0"
"/Game/FirstPersonArms/Character/Materials/M_UE4Man_Body.M_UE4Man_Body","0","0","32","1","0.000000","0","0"
"/Game/FPWeapon/Materials/M_FPGun.M_FPGun","0","0","32","1","0.000000","0","0"
"/Game/VRTemplate/Materials/M_TeleportNoise.M_TeleportNoise","0","0","9","1","0.000000","0","0"
"/Game/VRTemplate/Materials/M_TeleportCylinder.M_TeleportCylinder","0","0","15","1","0.000000","0","0"
"/VirtualProductionUtilities/Bookmark/CameraFacingTextMaterial.CameraFacingTextMaterial","0","0","15","1","0.000000","0","0"
"/Interchange/gltf/M_Unlit.M_Unlit","0","0","30","2","0.000000","0","0"
"/Interchange/Materials/ThinTranslucentMaterial.ThinTranslucentMaterial","0","0","6","1","0.000000","0","0"
"/Interchange/Materials/SubsurfaceMaterial.SubsurfaceMaterial","0","0","3","1","0.000000","0","0"
"/Interchange/Materials/SheenMaterial.SheenMaterial","0","0","3","1","0.000000","0","0"
"/Interchange/gltf/M_Transmission.M_Transmission","0","0","36","4","0.000000","0","0"
"/Interchange/gltf/M_Sheen.M_Sheen","0","0","64","4","0.000000","0","0"
"/Interchange/Materials/PBRSurfaceMaterial.PBRSurfaceMaterial","0","0","3","1","0.000000","0","0"
"/Interchange/Materials/ClearCoatMaterial.ClearCoatMaterial","0","0","3","1","0.000000","0","0"
"/Game/Characters/MannequinsXR/Materials/M_Mannequin.M_Mannequin","0","0","30","3","0.000000","0","0"
"/Interchange/gltf/M_Translucent.M_Translucent","0","0","56","8","0.000000","0","0"
"/Interchange/gltf/M_Opaque.M_Opaque","0","0","128","8","0.000000","0","0"
"/VirtualProductionUtilities/2D/Materials/UI/ContextMenu/Gaffer/M_GafferFlipbook.M_GafferFlipbook","0","0","10","1","0.000000","0","0"
"/ControlRig/Controls/ControlRigGizmoMaterial.ControlRigGizmoMaterial","49","0","2","1","0.000000","0","0"
"/VirtualProductionUtilities/Bookmark/M_BookmarkVP.M_BookmarkVP","49","0","3","1","0.000000","0","0"
"/VirtualProductionUtilities/2D/Materials/Bookmark/M_Metal.M_Metal","49","0","3","1","0.000000","0","0"
"/Engine/EngineDebugMaterials/DebugEditorMaterial.DebugEditorMaterial","49","0","6","1","0.000000","0","0"
"/AnimationSharing/AnimSharingBase.AnimSharingBase","49","0","6","1","0.000000","0","0"
"/VirtualProductionUtilities/Dolly/M_DollyVP.M_DollyVP","49","0","12","1","0.000000","0","0"
"/Engine/EngineDebugMaterials/M_SimpleOpaque.M_SimpleOpaque","49","0","3","1","0.000000","0","0"
"/VirtualProductionUtilities/Editor/Meshes/M_ContentWindow.M_ContentWindow","49","0","7","1","0.000000","0","0"
"/VirtualProductionUtilities/3D/Viewfinder/M_Viewfinder_Frame.M_Viewfinder_Frame","49","0","6","1","0.000000","0","0"
"/Engine/VREditor/FloatingText/LineMaterial.LineMaterial","49","0","2","1","0.000000","0","0"
"/Engine/EditorMaterials/PhAT_NoCollisionMaterial.PhAT_NoCollisionMaterial","49","0","3","1","0.000000","0","0"
"/Engine/EditorMaterials/PhAT_UnselectedMaterial.PhAT_UnselectedMaterial","49","0","3","1","0.000000","0","0"
"/MeshModelingToolset/Materials/M_DynamicMeshComponentVtxColor.M_DynamicMeshComponentVtxColor","49","0","9","1","0.000000","0","0"
"/Engine/EngineDebugMaterials/DebugMeshMaterial.DebugMeshMaterial","49","0","5","1","0.000000","0","0"
"/Engine/EngineMaterials/RemoveSurfaceMaterial.RemoveSurfaceMaterial","49","0","2","1","0.000000","0","0"
"/MovieRenderPipeline/Materials/MoviePipeline_StencilCutout.MoviePipeline_StencilCutout","49","0","19","1","0.000000","0","0"
"/Engine/EngineMaterials/GizmoMaterial.GizmoMaterial","49","0","6","1","0.000000","0","0"
"/nDisplay/TestPatterns/Animated/M_TPAStrips.M_TPAStrips","49","0","4","1","0.000000","0","0"
"/nDisplay/TestPatterns/Animated/M_TPARadar.M_TPARadar","49","0","4","1","0.000000","0","0"
"/Composure/Materials/ReplaceTonemapper/ComposureReplaceTonemapperByTexture.ComposureReplaceTonemapperByTexture","49","0","4","1","0.000000","0","0"
"/Composure/Materials/ReplaceTonemapper/ComposureReplaceTonemapperComposeBloom.ComposureReplaceTonemapperComposeBloom","49","0","4","1","0.000000","0","0"
"/Composure/Materials/Compositing/M_AlphaScale.M_AlphaScale","49","0","4","1","0.000000","0","0"
"/Composure/Materials/PassSetup/ComposureSimpleSetupMaterial.ComposureSimpleSetupMaterial","49","0","4","1","0.000000","0","0"
"/Composure/Materials/PassSetup/ComposureBeforeTranslucencySetBlack.ComposureBeforeTranslucencySetBlack","49","0","4","1","0.000000","0","0"
"/ControlRig/Controls/ControlRigXRayMaterial.ControlRigXRayMaterial","49","0","7","1","0.000000","0","0"
"/ColorCorrectRegions/Materials/M_ColorCorrectRegionTransparentPreview.M_ColorCorrectRegionTransparentPreview","49","0","3","1","0.000000","0","0"
"/nDisplay/TestPatterns/Animated/M_TPAMirroredChevron.M_TPAMirroredChevron","49","0","4","1","0.000000","0","0"
"/nDisplay/TestPatterns/Animated/M_TPAGrid.M_TPAGrid","49","0","4","1","0.000000","0","0"
"/nDisplay/TestPatterns/Animated/M_TPAChevron.M_TPAChevron","49","0","4","1","0.000000","0","0"
"/nDisplay/TestPatterns/Statics/M_TPSGridCircles.M_TPSGridCircles","49","0","4","1","0.000000","0","0"
"/nDisplay/TestPatterns/Statics/M_TPSGrayBars.M_TPSGrayBars","49","0","4","1","0.000000","0","0"
"/nDisplay/TestPatterns/Statics/M_TPSColoredBars.M_TPSColoredBars","49","0","4","1","0.000000","0","0"
"/nDisplay/TestPatterns/Statics/M_TPSCircles.M_TPSCircles","49","0","4","1","0.000000","0","0"
"/Engine/EditorLandscapeResources/SplineEditorMeshMat.SplineEditorMeshMat","49","0","12","1","0.000000","0","0"
"/Engine/EngineDebugMaterials/M_SimpleUnlitTranslucent.M_SimpleUnlitTranslucent","49","0","3","1","0.000000","0","0"
"/Engine/EditorMaterials/Camera/CineMat.CineMat","49","0","6","1","0.000000","0","0"
"/Engine/VREditor/TransformGizmo/Xray.Xray","49","0","3","1","0.000000","0","0"
"/Engine/VREditor/TransformGizmo/Main.Main","49","0","3","1","0.000000","0","0"
"/Engine/VREditor/TransformGizmo/TranslucentTransformGizmoMaterial.TranslucentTransformGizmoMaterial","49","0","3","1","0.000000","0","0"
"/Engine/EngineMaterials/DefaultLightFunctionMaterial.DefaultLightFunctionMaterial","49","0","23","1","0.000000","0","0"
"/Interchange/Materials/UnlitMaterial.UnlitMaterial","49","0","2","1","0.000000","0","0"
"/Game/VRTemplate/Blueprints/VR_TOOLS/3D_Letters/SUPERTOOL/Black.Black","49","0","6","1","0.000000","0","0"
"/Game/VRTemplate/Materials/plane.plane","49","0","3","1","0.000000","0","0"
"/Game/VRTemplate/Materials/DefaultRibbonMaterial_NoGradient.DefaultRibbonMaterial_NoGradient","49","0","15","1","0.000000","0","0"
"/Engine/VREditor/Devices/Generic/GenericHMDMaterial.GenericHMDMaterial","49","0","4","1","0.000000","0","0"
"/Game/VRTemplate/Materials/M_VRCursor.M_VRCursor","49","0","2","1","0.000000","0","0"
"/Game/VRTemplate/Blueprints/VR_TOOLS/particle/material/Paint.Paint","49","0","6","1","0.000000","0","0"
"/Niagara/DefaultAssets/DefaultSpriteMaterial.DefaultSpriteMaterial","49","0","35","1","0.000000","0","0"
"/Engine/EditorMeshes/ColorCalibrator/M_GreyBall.M_GreyBall","49","0","6","1","0.000000","0","0"
"/Engine/EngineMeshes/BackgroundMaterial.BackgroundMaterial","49","0","6","1","0.000000","0","0"
"/Engine/BasicShapes/BasicShapeMaterial.BasicShapeMaterial","49","0","11","1","0.000000","0","0"
"/Game/VRTemplate/Blueprints/VR_TOOLS/particle/material/DefaultSpriteMaterial.DefaultSpriteMaterial","49","0","40","1","0.000000","0","0"
"/VirtualProductionUtilities/Materials/VpRenderTextureMaterial.VPRenderTextureMaterial","49","0","8","2","0.000000","0","0"
"/VirtualProductionUtilities/2D/Materials/UI/Dynamic/M/M_ProgressBar.M_ProgressBar","49","0","9","1","0.000000","0","0"
"/MovieRenderPipeline/Blueprints/M_MoviePipelineRenderPreview.M_MoviePipelineRenderPreview","49","0","9","1","0.000000","0","0"
"/Engine/EngineMaterials/PhAT_JointLimitMaterial.PhAT_JointLimitMaterial","49","0","7","1","0.000000","0","0"
"/ControlRig/M_Manip.M_Manip","49","0","7","1","0.000000","0","0"
"/Engine/EngineMaterials/EmissiveMeshMaterial.EmissiveMeshMaterial","49","0","5","1","0.000000","0","0"
"/VirtualProductionUtilities/2D/Materials/HelpSystem/M_Unlit.M_Unlit","49","0","18","1","0.000000","0","0"
"/VirtualProductionUtilities/ScoutingFlare/M_PulsingFlare.M_PulsingFlare","49","0","3","1","0.000000","0","0"
"/VirtualProductionUtilities/Materials/MarkerColorMaterial.MarkerColorMaterial","49","0","12","1","0.000000","0","0"
"/VirtualProductionUtilities/3D/Viewfinder/M_Viewfinder_InfoBG.M_Viewfinder_InfoBG","49","0","6","1","0.000000","0","0"
"/Engine/VREditor/UI/M_ContentWindow.M_ContentWindow","49","0","14","1","0.000000","0","0"
"/Engine/VREditor/Fonts/VRTextMaterial.VRTextMaterial","49","0","17","1","0.000000","0","0"
"/Game/VRTemplate/Materials/M_Projectile.M_Projectile","49","0","3","1","0.000000","0","0"
"/VirtualProductionUtilities/VR/Textures/IconFlyingMode_Mat.IconFlyingMode_Mat","49","0","18","1","0.000000","0","0"
"/VirtualProductionUtilities/2D/Materials/UI/Icons/Camera/M_Camera.M_Camera","49","0","24","1","0.000000","0","0"
"/VirtualProductionUtilities/2D/Materials/UI/Icons/Flag/M_Flag.M_Flag","49","0","24","1","0.000000","0","0"
"/VirtualProductionUtilities/2D/Materials/Tools/Tripod/M_Tripod.M_Tripod","49","0","3","1","0.000000","0","0"
"/VirtualProductionUtilities/2D/Materials/Tools/Handheld/M_Handheld.M_Handheld","49","0","3","1","0.000000","0","0"
"/VirtualProductionUtilities/2D/Materials/UI/Icons/Marker/M_Marker.M_Marker","49","0","24","1","0.000000","0","0"
"/VirtualProductionUtilities/2D/Materials/Controller/M_Controller_ColorWheel_RiftS.M_Controller_ColorWheel_RiftS","49","0","17","1","0.000000","0","0"
"/VirtualProductionUtilities/2D/Materials/Controller/M_Controller_Body_Rift.M_Controller_Body_Rift","49","0","16","2","0.000000","0","0"
"/VirtualProductionUtilities/2D/Materials/Controller/M_Controller_Body.M_Controller_Body","49","0","16","2","0.000000","0","0"
"/VirtualProductionUtilities/2D/Materials/Controller/M_SettingsButton.M_SettingsButton","49","0","2","1","0.000000","0","0"
"/VirtualProductionUtilities/2D/Materials/Controller/M_Controller_Touchpad.M_Controller_Touchpad","49","0","3","1","0.000000","0","0"
"/VirtualProductionUtilities/2D/Materials/Controller/M_Controller_Indicator.M_Controller_Indicator","49","0","17","1","0.000000","0","0"
"/VirtualProductionUtilities/2D/Materials/Bookmark/M_Bookmark_MeasureSource.M_Bookmark_MeasureSource","49","0","2","1","0.000000","0","0"
"/VirtualProductionUtilities/2D/Materials/Bookmark/M_Bookmark_Light.M_Bookmark_Light","49","0","2","1","0.000000","0","0"
"/VirtualProductionUtilities/2D/Materials/UI/ContextMenu/MeasureTool/M_MeasurePanel.M_MeasurePanel","49","0","17","1","0.000000","0","0"
"/VirtualProductionUtilities/2D/Materials/Controller/M_Picker.M_Picker","49","0","2","1","0.000000","0","0"
"/VirtualProductionUtilities/2D/Materials/Controller/M_Controller_Buttons.M_Controller_Buttons","49","0","7","1","0.000000","0","0"
"/VirtualProductionUtilities/2D/Materials/Tools/Marker/M_Erasor.M_Erasor","49","0","3","1","0.000000","0","0"
"/VirtualProductionUtilities/LineRenderer/Materials/Mat_Beam.Mat_Beam","49","0","12","1","0.000000","0","0"
"/VirtualProductionUtilities/2D/Materials/UI/ContextMenu/M_Interactor_Cursor.M_Interactor_Cursor","49","0","2","1","0.000000","0","0"
"/VirtualProductionUtilities/2D/Materials/UI/Icons/User/M_User.M_User","49","0","24","1","0.000000","0","0"
"/VirtualProductionUtilities/2D/Materials/UI/Dynamic/MI/Temperature/M_GradientFade.M_GradientFade","49","0","10","1","0.000000","0","0"
"/Engine/EngineMaterials/FlattenMaterial_WS_Normal_VT.FlattenMaterial_WS_Normal_VT","49","0","8","1","0.000000","0","0"
"/Engine/EngineMaterials/FlattenMaterial_VT.FlattenMaterial_VT","49","0","8","1","0.000000","0","0"
"/Engine/EngineMaterials/M_InvalidLightmapSettings.M_InvalidLightmapSettings","49","0","6","1","0.000000","0","0"
"/Engine/EngineMaterials/FlattenMaterial.FlattenMaterial","49","0","8","1","0.000000","0","0"
"/Composure/Materials/ChromaKeying/M_SinglePassDespill.M_SinglePassDespill","49","0","4","1","0.000000","0","0"
"/Composure/Materials/Media/M_StaticVideoPlateDebug.M_StaticVideoPlateDebug","49","0","4","1","0.000000","0","0"
"/Composure/Materials/Media/M_VideoPlateDefault.M_VideoPlateDefault","49","0","4","1","0.000000","0","0"
"/Paper2D/DefaultSpriteMaterial.DefaultSpriteMaterial","49","0","46","2","0.000000","0","0"
"/Engine/EngineDebugMaterials/M_VolumeRenderSphereTracePP.M_VolumeRenderSphereTracePP","49","0","4","1","0.000000","0","0"
"/nDisplay/Materials/Preview/M_ProjPolicyPreview.M_ProjPolicyPreview","49","0","3","1","0.000000","0","0"
"/nDisplay/LightCard/M_LightCard.M_LightCard","49","0","3","1","0.000000","0","0"
"/VirtualProductionUtilities/Materials/M_UnlitText.M_UnlitText","49","0","17","1","0.000000","0","0"
"/Interchange/Materials/PhongSurfaceMaterial.PhongSurfaceMaterial","49","0","3","1","0.000000","0","0"
"/Engine/EngineMaterials/WorldGridMaterial.WorldGridMaterial","49","0","518","1","0.000000","0","0"
"/MovieRenderPipeline/Materials/MovieRenderQueue_MotionVectors.MovieRenderQueue_MotionVectors","49","0","4","1","0.000000","0","0"
"/nDisplay/LightCard/M_UVIndicator.M_UVIndicator","49","0","3","1","0.000000","0","0"
"/Engine/VREditor/LaserPointer/LaserPointerMaterial.LaserPointerMaterial","49","0","14","2","0.000000","0","0"
"/Engine/VREditor/TransformGizmo/TransformGizmoMaterial.TransformGizmoMaterial","49","0","2","1","0.000000","0","0"
"/MovieRenderPipeline/Materials/MovieRenderQueue_WorldDepth.MovieRenderQueue_WorldDepth","49","0","4","1","0.000000","0","0"
"/Engine/EditorMaterials/WorldPartition/WorldPartitionSpatialHashGridPreviewMaterial.WorldPartitionSpatialHashGridPreviewMaterial","49","0","4","1","0.000000","0","0"
"/OpenXR/Devices/M_XRController.M_XRController","49","0","9","3","0.000000","0","9"
"/VirtualProductionUtilities/Materials/WidgetPostProcessMaterial.WidgetPostProcessMaterial","49","0","4","1","0.000000","0","0"
"/Engine/EngineMaterials/Widget3DPassThrough.Widget3DPassThrough","49","0","50","6","0.000000","0","3"
"/VirtualProductionUtilities/2D/Materials/Tools/Gaffer/M_Gaffer.M_Gaffer","49","0","3","1","0.000000","0","0"
"/Engine/EngineSky/VolumetricClouds/m_SimpleVolumetricCloud.m_SimpleVolumetricCloud","49","0","39","1","0.000000","0","0"
"/Engine/EngineMaterials/DefaultPostProcessMaterial.DefaultPostProcessMaterial","49","0","6","1","0.000000","0","0"
"/Engine/EngineMaterials/DefaultDeferredDecalMaterial.DefaultDeferredDecalMaterial","49","0","33","1","0.000000","0","0"
"/Engine/EngineMaterials/DefaultMaterial.DefaultMaterial","49","0","24","1","0.000000","0","0"
"/Engine/EngineMaterials/DefaultTextMaterialOpaque.DefaultTextMaterialOpaque","49","0","18","1","0.000000","0","0"
"/Engine/EditorMaterials/PreviewShadowIndicatorMaterial.PreviewShadowIndicatorMaterial","49","0","23","1","0.000000","0","0"
"/Game/StarterContent/Materials/M_Brick_Clay_New.M_Brick_Clay_New","49","0","3","1","0.000000","0","8"
"/Engine/EngineSky/M_Sky_Panning_Clouds2.M_Sky_Panning_Clouds2","49","0","2","1","0.000000","0","0"
"/VirtualProductionUtilities/2D/Materials/UI/Dynamic/M/M_RoundBorders.M_RoundBorders","49","0","70","7","0.000000","0","210"
"/SpeedTreeImporter/SpeedTree9/SpeedTreeBillboardMaster.SpeedTreeBillboardMaster","49","0","36","1","0.000000","0","0"
"/SpeedTreeImporter/SpeedTree9/SpeedTreeMaster.SpeedTreeMaster","49","0","36","1","0.000000","0","0"
"/Composure/Materials/ChromaKeying/M_SinglePassChromaKeyer.M_SinglePassChromaKeyer","49","0","4","1","0.000000","0","0"
"/Interchange/Materials/LambertSurfaceMaterial.LambertSurfaceMaterial","49","0","3","1","0.000000","0","0"
"/Interchange/Materials/OrenNayerMaterial.OrenNayerMaterial","49","0","5","1","0.000000","0","0"
"/Game/FirstPersonArms/Character/Materials/M_UE4Man_Body.M_UE4Man_Body","49","0","36","1","0.000000","0","0"
"/Game/FPWeapon/Materials/M_FPGun.M_FPGun","49","0","36","1","0.000000","0","0"
"/Game/VRTemplate/Materials/M_TeleportNoise.M_TeleportNoise","49","0","9","1","0.000000","0","0"
"/Game/VRTemplate/Materials/M_TeleportCylinder.M_TeleportCylinder","49","0","15","1","0.000000","0","0"
"/VirtualProductionUtilities/Bookmark/CameraFacingTextMaterial.CameraFacingTextMaterial","49","0","17","1","0.000000","0","0"
"/Interchange/gltf/M_Unlit.M_Unlit","49","0","34","2","0.000000","0","0"
"/Interchange/Materials/ThinTranslucentMaterial.ThinTranslucentMaterial","49","0","6","1","0.000000","0","0"
"/Interchange/Materials/SubsurfaceMaterial.SubsurfaceMaterial","49","0","3","1","0.000000","0","0"
"/Interchange/Materials/SheenMaterial.SheenMaterial","49","0","3","1","0.000000","0","0"
"/Interchange/gltf/M_Transmission.M_Transmission","49","0","36","4","0.000000","0","0"
"/Interchange/gltf/M_Sheen.M_Sheen","49","0","72","4","0.000000","0","0"
"/Interchange/Materials/PBRSurfaceMaterial.PBRSurfaceMaterial","49","0","3","1","0.000000","0","0"
"/Interchange/Materials/ClearCoatMaterial.ClearCoatMaterial","49","0","3","1","0.000000","0","0"
"/Game/Characters/MannequinsXR/Materials/M_Mannequin.M_Mannequin","49","0","30","3","0.000000","0","0"
"/Interchange/gltf/M_Translucent.M_Translucent","49","0","56","8","0.000000","0","0"
"/Interchange/gltf/M_Opaque.M_Opaque","49","0","144","8","0.000000","0","0"
"/VirtualProductionUtilities/2D/Materials/UI/ContextMenu/Gaffer/M_GafferFlipbook.M_GafferFlipbook","49","0","10","1","0.000000","0","0"
