[+] Containers:
 |- [+] Container: /Game/FirstPerson/Maps/FirstPersonMap
 |   |- [+] ActorDescs:
 |   |   |- Guid:00C486344716D2EB309512AE5002C946 BaseClass: NativeClass:/Script/Engine.StaticMeshActor Name:StaticMeshActor_UAID_04D9F57F21DE454E01_1841761673 Label:Cube SpatiallyLoaded:1 Bounds:IsValid=true, Min=(X=856.500 Y=3378.500 Z=-228.500), Max=(X=2231.500 Y=3403.500 Z=2096.500) RuntimeGrid:None EditorOnly:0 RuntimeOnly:0 HLODRelevant:1
 |   |   |- Guid:14523CC94DDD49F7D831AD8B39EE997F BaseClass: NativeClass:/Script/Engine.StaticMeshActor Name:StaticMeshActor_UAID_04D9F57F21DE884F01_1596131520 Label:Box SpatiallyLoaded:1 Bounds:IsValid=true, Min=(X=-1.000 Y=-2.000 Z=0.000), Max=(X=99.000 Y=3498.000 Z=2000.000) RuntimeGrid:None EditorOnly:0 RuntimeOnly:0 HLODRelevant:0
 |   |   |- Guid:202F81C04CEE7CE2E1E867B55E2BFB14 BaseClass: NativeClass:/Script/Engine.StaticMeshActor Name:StaticMeshActor_UAID_04D9F57F21DE884F01_1720887524 Label:SM_Cube2 SpatiallyLoaded:1 Bounds:IsValid=true, Min=(X=0.000 Y=0.000 Z=1940.000), Max=(X=3000.000 Y=3500.000 Z=1990.000) RuntimeGrid:None EditorOnly:0 RuntimeOnly:0 HLODRelevant:1 FolderPath:Playground FolderGuid:6C02BB504B69D1F3D7A624B130C18E5B
 |   |   |- Guid:4B498E1D424BB20F2853C5B7786A82D4 BaseClass: NativeClass:/Script/Engine.RectLight Name:RectLight_UAID_04D9F57F21DE884F01_1839996527 Label:RectLight3 SpatiallyLoaded:1 Bounds:IsValid=true, Min=(X=-166.968 Y=329.032 Z=-1571.968), Max=(X=5554.968 Y=6050.968 Z=4149.968) RuntimeGrid:None EditorOnly:0 RuntimeOnly:0 HLODRelevant:0
 |   |   |- Guid:4FCDC24E4DB03523E8A62DBD04A79AE5 BaseClass: NativeClass:/Script/Engine.RectLight Name:RectLight_UAID_04D9F57F21DE884F01_1820876526 Label:RectLight2 SpatiallyLoaded:1 Bounds:IsValid=true, Min=(X=-166.968 Y=-2536.968 Z=-1571.968), Max=(X=5554.968 Y=3184.968 Z=4149.968) RuntimeGrid:None EditorOnly:0 RuntimeOnly:0 HLODRelevant:0
 |   |   |- Guid:5FE7584649BB6F09265329A6C57CFD0D BaseClass: NativeClass:/Script/Engine.VolumetricCloud Name:VolumetricCloud_0 Label:VolumetricCloud SpatiallyLoaded:0 Bounds:IsValid=true, Min=(X=0.000 Y=0.000 Z=820.000), Max=(X=0.000 Y=0.000 Z=820.000) RuntimeGrid:None EditorOnly:0 RuntimeOnly:0 HLODRelevant:0 FolderPath:Lighting FolderGuid:0BA5F0A04EADB18E70D5B180D08FA34B
 |   |   |- Guid:61391D344900612A77DFC3BA3E354907 BaseClass: NativeClass:/Script/Engine.ExponentialHeightFog Name:ExponentialHeightFog_0 Label:ExponentialHeightFog SpatiallyLoaded:0 Bounds:IsValid=true, Min=(X=-5600.000 Y=-50.000 Z=-6850.000), Max=(X=-5600.000 Y=-50.000 Z=-6850.000) RuntimeGrid:None EditorOnly:0 RuntimeOnly:0 HLODRelevant:0 FolderPath:Lighting FolderGuid:0BA5F0A04EADB18E70D5B180D08FA34B
 |   |   |- Guid:67443E3848A2F83EE9FE5B868CB4DDC0 BaseClass: NativeClass:/Script/Engine.StaticMeshActor Name:StaticMeshActor_UAID_04D9F57F21DE284C01_1851994455 Label:Plane SpatiallyLoaded:1 Bounds:IsValid=true, Min=(X=822.000 Y=790.000 Z=1.000), Max=(X=2322.000 Y=2790.000 Z=1.000) RuntimeGrid:None EditorOnly:0 RuntimeOnly:0 HLODRelevant:1
 |   |   |- Guid:6FEFB3BD4EB37B849EF0D4AC80F83855 BaseClass: NativeClass:/Script/Engine.WorldDataLayers Name:WorldDataLayers Label:WorldDataLayers SpatiallyLoaded:0 Bounds:IsValid=true, Min=(X=0.000 Y=0.000 Z=0.000), Max=(X=0.000 Y=0.000 Z=0.000) RuntimeGrid:None EditorOnly:0 RuntimeOnly:0 HLODRelevant:0
 |   |   |- Guid:78CAF7514C7533F30BD2F19A017AAB65 BaseClass: NativeClass:/Script/Engine.StaticMeshActor Name:StaticMeshActor_0 Label:SM_Cube SpatiallyLoaded:1 Bounds:IsValid=true, Min=(X=0.000 Y=0.000 Z=-50.000), Max=(X=3000.000 Y=3500.000 Z=0.000) RuntimeGrid:None EditorOnly:0 RuntimeOnly:0 HLODRelevant:1 FolderPath:Playground FolderGuid:6C02BB504B69D1F3D7A624B130C18E5B
 |   |   |- Guid:7C1B1ED84036E109596339B4879198FB BaseClass:/Game/FirstPerson/CCTV/Camera_Visualisation.Camera_Visualisation_C NativeClass:/Script/Engine.CameraActor Name:Camera_Visualisation_C_UAID_04D9F57F21DE444E01_1400163495 Label:Camera_Visualisation SpatiallyLoaded:1 Bounds:IsValid=true, Min=(X=1572.000 Y=1777.000 Z=1347.000), Max=(X=1572.000 Y=1777.000 Z=1347.000) RuntimeGrid:None EditorOnly:0 RuntimeOnly:0 HLODRelevant:0
 |   |   |- Guid:87BFE22B4F44496F8609CAB535C73C57 BaseClass: NativeClass:/Script/Engine.StaticMeshActor Name:StaticMeshActor_UAID_04D9F57F21DE884F01_1641324521 Label:Box2 SpatiallyLoaded:1 Bounds:IsValid=true, Min=(X=2900.000 Y=-2.000 Z=0.000), Max=(X=3000.000 Y=3498.000 Z=2000.000) RuntimeGrid:None EditorOnly:0 RuntimeOnly:0 HLODRelevant:0
 |   |   |- Guid:9264A25848D89B85EB175C8D535D9430 BaseClass: NativeClass:/Script/Engine.RectLight Name:RectLight_UAID_04D9F57F21DE884F01_1748625525 Label:RectLight SpatiallyLoaded:1 Bounds:IsValid=true, Min=(X=-2584.968 Y=-2536.968 Z=-1571.968), Max=(X=3136.968 Y=3184.968 Z=4149.968) RuntimeGrid:None EditorOnly:0 RuntimeOnly:0 HLODRelevant:0
 |   |   |- Guid:A354B1B24E617A525DC6B48CCDE2417E BaseClass: NativeClass:/Script/Engine.PlayerStart Name:PlayerStart_0 Label:PlayerStart SpatiallyLoaded:0 Bounds:IsValid=true, Min=(X=860.000 Y=810.000 Z=0.013), Max=(X=940.000 Y=890.000 Z=184.013) RuntimeGrid:None EditorOnly:0 RuntimeOnly:0 HLODRelevant:0
 |   |   |- Guid:AAB0DC6442F89CFD690FBF94F84BC5BA BaseClass: NativeClass:/Script/Engine.StaticMeshActor Name:StaticMeshActor_UAID_04D9F57F21DE884F01_1676562522 Label:Box3 SpatiallyLoaded:1 Bounds:IsValid=true, Min=(X=-28.250 Y=-4.000 Z=0.000), Max=(X=3034.250 Y=96.000 Z=2000.000) RuntimeGrid:None EditorOnly:0 RuntimeOnly:0 HLODRelevant:0
 |   |   |- Guid:C0C56B9644AE3D40CAFF6A878DB29844 BaseClass: NativeClass:/Script/Engine.StaticMeshActor Name:StaticMeshActor_UAID_A4AE111137DC5EFB00_2001720423 Label:SM_SkySphere SpatiallyLoaded:0 Bounds:IsValid=true, Min=(X=-1638400.000 Y=-1638400.000 Z=-1638400.000), Max=(X=1638400.000 Y=1638400.000 Z=1638400.000) RuntimeGrid:None EditorOnly:0 RuntimeOnly:0 HLODRelevant:1 FolderPath:Lighting FolderGuid:0BA5F0A04EADB18E70D5B180D08FA34B
 |   |   |- Guid:C22CE07C4B87D685137FDBBC10FC92C6 BaseClass: NativeClass:/Script/Engine.SkyAtmosphere Name:SkyAtmosphere_0 Label:SkyAtmosphere SpatiallyLoaded:0 Bounds:IsValid=true, Min=(X=0.000 Y=0.000 Z=1020.000), Max=(X=0.000 Y=0.000 Z=1020.000) RuntimeGrid:None EditorOnly:0 RuntimeOnly:0 HLODRelevant:0 FolderPath:Lighting FolderGuid:0BA5F0A04EADB18E70D5B180D08FA34B
 |   |   |- Guid:C396BC7A468FA32D598600AA02D96DD0 BaseClass: NativeClass:/Script/Engine.RectLight Name:RectLight_UAID_04D9F57F21DE884F01_1856419528 Label:RectLight4 SpatiallyLoaded:1 Bounds:IsValid=true, Min=(X=-2540.968 Y=329.032 Z=-1571.968), Max=(X=3180.968 Y=6050.968 Z=4149.968) RuntimeGrid:None EditorOnly:0 RuntimeOnly:0 HLODRelevant:0
 |   |   |- Guid:CE8D82634660FCDB3120E2B8D547C533 BaseClass: NativeClass:/Script/Engine.PostProcessVolume Name:PostProcessVolume_0 Label:PostProcessVolume SpatiallyLoaded:0 Bounds:IsValid=true, Min=(X=0.000 Y=0.000 Z=400.000), Max=(X=200.000 Y=200.000 Z=600.000) RuntimeGrid:None EditorOnly:0 RuntimeOnly:0 HLODRelevant:0 FolderPath:Lighting FolderGuid:0BA5F0A04EADB18E70D5B180D08FA34B
 |   |   |- Guid:DC926E67479E47F2E2691FA4E9BD14BC BaseClass:/Game/FirstPerson/Blueprints/Line_Trace.Line_Trace_C NativeClass:/Script/Engine.Actor Name:Line_Trace_C_UAID_04D9F57F21DEF24F01_1674966176 Label:Line_Trace SpatiallyLoaded:1 Bounds:IsValid=true, Min=(X=1393.000 Y=860.250 Z=16.000), Max=(X=1437.000 Y=945.000 Z=82.000) RuntimeGrid:None EditorOnly:0 RuntimeOnly:0 HLODRelevant:0
 |   |   |- Guid:E0A7E2AB4A88C6894AF10DB1393CDB7D BaseClass: NativeClass:/Script/Engine.StaticMeshActor Name:StaticMeshActor_UAID_04D9F57F21DE884F01_1711798523 Label:Box4 SpatiallyLoaded:1 Bounds:IsValid=true, Min=(X=-28.250 Y=3420.000 Z=0.000), Max=(X=3034.250 Y=3520.000 Z=2000.000) RuntimeGrid:None EditorOnly:0 RuntimeOnly:0 HLODRelevant:0
 |   |   |- Guid:E5320C1B4FD9764CE7B54D8487AEC613 BaseClass: NativeClass:/Script/Engine.SkyLight Name:SkyLight_0 Label:SkyLight SpatiallyLoaded:0 Bounds:IsValid=true, Min=(X=0.000 Y=0.000 Z=690.000), Max=(X=0.000 Y=0.000 Z=690.000) RuntimeGrid:None EditorOnly:0 RuntimeOnly:0 HLODRelevant:0 FolderPath:Lighting FolderGuid:0BA5F0A04EADB18E70D5B180D08FA34B
 |   |   |- Guid:EC3999E94CE24D3F5B8E488FB999D592 BaseClass:/Game/FirstPerson/Blueprints/SprayPaint.SprayPaint_C NativeClass:/Script/Engine.Actor Name:SprayPaint_C_UAID_04D9F57F21DEF24F01_1528057175 Label:SprayPaint SpatiallyLoaded:1 Bounds:IsValid=true, Min=(X=1489.000 Y=877.250 Z=37.000), Max=(X=1533.000 Y=962.000 Z=103.000) RuntimeGrid:None EditorOnly:0 RuntimeOnly:0 HLODRelevant:0
 |   |   |- Guid:F80621C9446867154938FE81375207DA BaseClass: NativeClass:/Script/Engine.DirectionalLight Name:DirectionalLight_1 Label:DirectionalLight SpatiallyLoaded:0 Bounds:IsValid=true, Min=(X=-1048576.000 Y=-1048576.000 Z=-1048576.000), Max=(X=1048576.000 Y=1048576.000 Z=1048576.000) RuntimeGrid:None EditorOnly:0 RuntimeOnly:0 HLODRelevant:0 FolderPath:Lighting FolderGuid:0BA5F0A04EADB18E70D5B180D08FA34B
 |   |- [+] Clusters:
 |   |   |- [+] [  0]
 |   |   |   |- Guid:14523CC94DDD49F7D831AD8B39EE997F BaseClass: NativeClass:/Script/Engine.StaticMeshActor Name:StaticMeshActor_UAID_04D9F57F21DE884F01_1596131520 Label:Box SpatiallyLoaded:1 Bounds:IsValid=true, Min=(X=-1.000 Y=-2.000 Z=0.000), Max=(X=99.000 Y=3498.000 Z=2000.000) RuntimeGrid:None EditorOnly:0 RuntimeOnly:0 HLODRelevant:0
 |   |   |- [+] [  1]
 |   |   |   |- Guid:61391D344900612A77DFC3BA3E354907 BaseClass: NativeClass:/Script/Engine.ExponentialHeightFog Name:ExponentialHeightFog_0 Label:ExponentialHeightFog SpatiallyLoaded:0 Bounds:IsValid=true, Min=(X=-5600.000 Y=-50.000 Z=-6850.000), Max=(X=-5600.000 Y=-50.000 Z=-6850.000) RuntimeGrid:None EditorOnly:0 RuntimeOnly:0 HLODRelevant:0 FolderPath:Lighting FolderGuid:0BA5F0A04EADB18E70D5B180D08FA34B
 |   |   |- [+] [  2]
 |   |   |   |- Guid:5FE7584649BB6F09265329A6C57CFD0D BaseClass: NativeClass:/Script/Engine.VolumetricCloud Name:VolumetricCloud_0 Label:VolumetricCloud SpatiallyLoaded:0 Bounds:IsValid=true, Min=(X=0.000 Y=0.000 Z=820.000), Max=(X=0.000 Y=0.000 Z=820.000) RuntimeGrid:None EditorOnly:0 RuntimeOnly:0 HLODRelevant:0 FolderPath:Lighting FolderGuid:0BA5F0A04EADB18E70D5B180D08FA34B
 |   |   |- [+] [  3]
 |   |   |   |- Guid:7C1B1ED84036E109596339B4879198FB BaseClass:/Game/FirstPerson/CCTV/Camera_Visualisation.Camera_Visualisation_C NativeClass:/Script/Engine.CameraActor Name:Camera_Visualisation_C_UAID_04D9F57F21DE444E01_1400163495 Label:Camera_Visualisation SpatiallyLoaded:1 Bounds:IsValid=true, Min=(X=1572.000 Y=1777.000 Z=1347.000), Max=(X=1572.000 Y=1777.000 Z=1347.000) RuntimeGrid:None EditorOnly:0 RuntimeOnly:0 HLODRelevant:0
 |   |   |- [+] [  4]
 |   |   |   |- Guid:67443E3848A2F83EE9FE5B868CB4DDC0 BaseClass: NativeClass:/Script/Engine.StaticMeshActor Name:StaticMeshActor_UAID_04D9F57F21DE284C01_1851994455 Label:Plane SpatiallyLoaded:1 Bounds:IsValid=true, Min=(X=822.000 Y=790.000 Z=1.000), Max=(X=2322.000 Y=2790.000 Z=1.000) RuntimeGrid:None EditorOnly:0 RuntimeOnly:0 HLODRelevant:1
 |   |   |- [+] [  5]
 |   |   |   |- Guid:F80621C9446867154938FE81375207DA BaseClass: NativeClass:/Script/Engine.DirectionalLight Name:DirectionalLight_1 Label:DirectionalLight SpatiallyLoaded:0 Bounds:IsValid=true, Min=(X=-1048576.000 Y=-1048576.000 Z=-1048576.000), Max=(X=1048576.000 Y=1048576.000 Z=1048576.000) RuntimeGrid:None EditorOnly:0 RuntimeOnly:0 HLODRelevant:0 FolderPath:Lighting FolderGuid:0BA5F0A04EADB18E70D5B180D08FA34B
 |   |   |- [+] [  6]
 |   |   |   |- Guid:E0A7E2AB4A88C6894AF10DB1393CDB7D BaseClass: NativeClass:/Script/Engine.StaticMeshActor Name:StaticMeshActor_UAID_04D9F57F21DE884F01_1711798523 Label:Box4 SpatiallyLoaded:1 Bounds:IsValid=true, Min=(X=-28.250 Y=3420.000 Z=0.000), Max=(X=3034.250 Y=3520.000 Z=2000.000) RuntimeGrid:None EditorOnly:0 RuntimeOnly:0 HLODRelevant:0
 |   |   |- [+] [  7]
 |   |   |   |- Guid:4B498E1D424BB20F2853C5B7786A82D4 BaseClass: NativeClass:/Script/Engine.RectLight Name:RectLight_UAID_04D9F57F21DE884F01_1839996527 Label:RectLight3 SpatiallyLoaded:1 Bounds:IsValid=true, Min=(X=-166.968 Y=329.032 Z=-1571.968), Max=(X=5554.968 Y=6050.968 Z=4149.968) RuntimeGrid:None EditorOnly:0 RuntimeOnly:0 HLODRelevant:0
 |   |   |- [+] [  8]
 |   |   |   |- Guid:00C486344716D2EB309512AE5002C946 BaseClass: NativeClass:/Script/Engine.StaticMeshActor Name:StaticMeshActor_UAID_04D9F57F21DE454E01_1841761673 Label:Cube SpatiallyLoaded:1 Bounds:IsValid=true, Min=(X=856.500 Y=3378.500 Z=-228.500), Max=(X=2231.500 Y=3403.500 Z=2096.500) RuntimeGrid:None EditorOnly:0 RuntimeOnly:0 HLODRelevant:1
 |   |   |- [+] [  9]
 |   |   |   |- Guid:4FCDC24E4DB03523E8A62DBD04A79AE5 BaseClass: NativeClass:/Script/Engine.RectLight Name:RectLight_UAID_04D9F57F21DE884F01_1820876526 Label:RectLight2 SpatiallyLoaded:1 Bounds:IsValid=true, Min=(X=-166.968 Y=-2536.968 Z=-1571.968), Max=(X=5554.968 Y=3184.968 Z=4149.968) RuntimeGrid:None EditorOnly:0 RuntimeOnly:0 HLODRelevant:0
 |   |   |- [+] [ 10]
 |   |   |   |- Guid:9264A25848D89B85EB175C8D535D9430 BaseClass: NativeClass:/Script/Engine.RectLight Name:RectLight_UAID_04D9F57F21DE884F01_1748625525 Label:RectLight SpatiallyLoaded:1 Bounds:IsValid=true, Min=(X=-2584.968 Y=-2536.968 Z=-1571.968), Max=(X=3136.968 Y=3184.968 Z=4149.968) RuntimeGrid:None EditorOnly:0 RuntimeOnly:0 HLODRelevant:0
 |   |   |- [+] [ 11]
 |   |   |   |- Guid:E5320C1B4FD9764CE7B54D8487AEC613 BaseClass: NativeClass:/Script/Engine.SkyLight Name:SkyLight_0 Label:SkyLight SpatiallyLoaded:0 Bounds:IsValid=true, Min=(X=0.000 Y=0.000 Z=690.000), Max=(X=0.000 Y=0.000 Z=690.000) RuntimeGrid:None EditorOnly:0 RuntimeOnly:0 HLODRelevant:0 FolderPath:Lighting FolderGuid:0BA5F0A04EADB18E70D5B180D08FA34B
 |   |   |- [+] [ 12]
 |   |   |   |- Guid:78CAF7514C7533F30BD2F19A017AAB65 BaseClass: NativeClass:/Script/Engine.StaticMeshActor Name:StaticMeshActor_0 Label:SM_Cube SpatiallyLoaded:1 Bounds:IsValid=true, Min=(X=0.000 Y=0.000 Z=-50.000), Max=(X=3000.000 Y=3500.000 Z=0.000) RuntimeGrid:None EditorOnly:0 RuntimeOnly:0 HLODRelevant:1 FolderPath:Playground FolderGuid:6C02BB504B69D1F3D7A624B130C18E5B
 |   |   |- [+] [ 13]
 |   |   |   |- Guid:AAB0DC6442F89CFD690FBF94F84BC5BA BaseClass: NativeClass:/Script/Engine.StaticMeshActor Name:StaticMeshActor_UAID_04D9F57F21DE884F01_1676562522 Label:Box3 SpatiallyLoaded:1 Bounds:IsValid=true, Min=(X=-28.250 Y=-4.000 Z=0.000), Max=(X=3034.250 Y=96.000 Z=2000.000) RuntimeGrid:None EditorOnly:0 RuntimeOnly:0 HLODRelevant:0
 |   |   |- [+] [ 14]
 |   |   |   |- Guid:A354B1B24E617A525DC6B48CCDE2417E BaseClass: NativeClass:/Script/Engine.PlayerStart Name:PlayerStart_0 Label:PlayerStart SpatiallyLoaded:0 Bounds:IsValid=true, Min=(X=860.000 Y=810.000 Z=0.013), Max=(X=940.000 Y=890.000 Z=184.013) RuntimeGrid:None EditorOnly:0 RuntimeOnly:0 HLODRelevant:0
 |   |   |- [+] [ 15]
 |   |   |   |- Guid:87BFE22B4F44496F8609CAB535C73C57 BaseClass: NativeClass:/Script/Engine.StaticMeshActor Name:StaticMeshActor_UAID_04D9F57F21DE884F01_1641324521 Label:Box2 SpatiallyLoaded:1 Bounds:IsValid=true, Min=(X=2900.000 Y=-2.000 Z=0.000), Max=(X=3000.000 Y=3498.000 Z=2000.000) RuntimeGrid:None EditorOnly:0 RuntimeOnly:0 HLODRelevant:0
 |   |   |- [+] [ 16]
 |   |   |   |- Guid:C396BC7A468FA32D598600AA02D96DD0 BaseClass: NativeClass:/Script/Engine.RectLight Name:RectLight_UAID_04D9F57F21DE884F01_1856419528 Label:RectLight4 SpatiallyLoaded:1 Bounds:IsValid=true, Min=(X=-2540.968 Y=329.032 Z=-1571.968), Max=(X=3180.968 Y=6050.968 Z=4149.968) RuntimeGrid:None EditorOnly:0 RuntimeOnly:0 HLODRelevant:0
 |   |   |- [+] [ 17]
 |   |   |   |- Guid:C22CE07C4B87D685137FDBBC10FC92C6 BaseClass: NativeClass:/Script/Engine.SkyAtmosphere Name:SkyAtmosphere_0 Label:SkyAtmosphere SpatiallyLoaded:0 Bounds:IsValid=true, Min=(X=0.000 Y=0.000 Z=1020.000), Max=(X=0.000 Y=0.000 Z=1020.000) RuntimeGrid:None EditorOnly:0 RuntimeOnly:0 HLODRelevant:0 FolderPath:Lighting FolderGuid:0BA5F0A04EADB18E70D5B180D08FA34B
 |   |   |- [+] [ 18]
 |   |   |   |- Guid:C0C56B9644AE3D40CAFF6A878DB29844 BaseClass: NativeClass:/Script/Engine.StaticMeshActor Name:StaticMeshActor_UAID_A4AE111137DC5EFB00_2001720423 Label:SM_SkySphere SpatiallyLoaded:0 Bounds:IsValid=true, Min=(X=-1638400.000 Y=-1638400.000 Z=-1638400.000), Max=(X=1638400.000 Y=1638400.000 Z=1638400.000) RuntimeGrid:None EditorOnly:0 RuntimeOnly:0 HLODRelevant:1 FolderPath:Lighting FolderGuid:0BA5F0A04EADB18E70D5B180D08FA34B
 |   |   |- [+] [ 19]
 |   |   |   |- Guid:6FEFB3BD4EB37B849EF0D4AC80F83855 BaseClass: NativeClass:/Script/Engine.WorldDataLayers Name:WorldDataLayers Label:WorldDataLayers SpatiallyLoaded:0 Bounds:IsValid=true, Min=(X=0.000 Y=0.000 Z=0.000), Max=(X=0.000 Y=0.000 Z=0.000) RuntimeGrid:None EditorOnly:0 RuntimeOnly:0 HLODRelevant:0
 |   |   |- [+] [ 20]
 |   |   |   |- Guid:202F81C04CEE7CE2E1E867B55E2BFB14 BaseClass: NativeClass:/Script/Engine.StaticMeshActor Name:StaticMeshActor_UAID_04D9F57F21DE884F01_1720887524 Label:SM_Cube2 SpatiallyLoaded:1 Bounds:IsValid=true, Min=(X=0.000 Y=0.000 Z=1940.000), Max=(X=3000.000 Y=3500.000 Z=1990.000) RuntimeGrid:None EditorOnly:0 RuntimeOnly:0 HLODRelevant:1 FolderPath:Playground FolderGuid:6C02BB504B69D1F3D7A624B130C18E5B
 |   |   |- [+] [ 21]
 |   |   |   |- Guid:CE8D82634660FCDB3120E2B8D547C533 BaseClass: NativeClass:/Script/Engine.PostProcessVolume Name:PostProcessVolume_0 Label:PostProcessVolume SpatiallyLoaded:0 Bounds:IsValid=true, Min=(X=0.000 Y=0.000 Z=400.000), Max=(X=200.000 Y=200.000 Z=600.000) RuntimeGrid:None EditorOnly:0 RuntimeOnly:0 HLODRelevant:0 FolderPath:Lighting FolderGuid:0BA5F0A04EADB18E70D5B180D08FA34B
 |   |   |- [+] [ 22]
 |   |   |   |- Guid:DC926E67479E47F2E2691FA4E9BD14BC BaseClass:/Game/FirstPerson/Blueprints/Line_Trace.Line_Trace_C NativeClass:/Script/Engine.Actor Name:Line_Trace_C_UAID_04D9F57F21DEF24F01_1674966176 Label:Line_Trace SpatiallyLoaded:1 Bounds:IsValid=true, Min=(X=1393.000 Y=860.250 Z=16.000), Max=(X=1437.000 Y=945.000 Z=82.000) RuntimeGrid:None EditorOnly:0 RuntimeOnly:0 HLODRelevant:0
 |   |   |- [+] [ 23]
 |   |   |   |- Guid:EC3999E94CE24D3F5B8E488FB999D592 BaseClass:/Game/FirstPerson/Blueprints/SprayPaint.SprayPaint_C NativeClass:/Script/Engine.Actor Name:SprayPaint_C_UAID_04D9F57F21DEF24F01_1528057175 Label:SprayPaint SpatiallyLoaded:1 Bounds:IsValid=true, Min=(X=1489.000 Y=877.250 Z=37.000), Max=(X=1533.000 Y=962.000 Z=103.000) RuntimeGrid:None EditorOnly:0 RuntimeOnly:0 HLODRelevant:0
 |- ContainerInstances:
 |- [+] MainContainer:
 |   |-        ID: 0x0000000000000000
 |   |-    Bounds: IsValid=false, Min=(X=0.000 Y=0.000 Z=0.000), Max=(X=0.000 Y=0.000 Z=0.000)
 |   |- Transform: 0.000000,0.000000,0.000000|0.000000,0.000000,-0.000000|1.000000,1.000000,1.000000
 |   |- Container: /Game/FirstPerson/Maps/FirstPersonMap
----------------------------------------------------------------------------------------------------------------
FirstPersonMap - Persistent Level
----------------------------------------------------------------------------------------------------------------
Always loaded Actor Count: 36 

----------------------------------------------------------------------------------------------------------------
FirstPersonMap - Runtime Spatial Hash - Streaming Grid - MainGrid
----------------------------------------------------------------------------------------------------------------
            Origin: X=0.000 Y=0.000 Z=0.000
         Cell Size: 12800
      World Bounds: IsValid=false, Min=(X=0.000 Y=0.000 Z=0.000), Max=(X=0.000 Y=0.000 Z=0.000)
     Loading Range: 25600.00
Block Slow Loading: No
 ClientOnlyVisible: No

[+] Grid Levels: 1
 |- Level  0: Cell Count    0 | Cell Size   12800 | Actor Count    0 (0.0%)

[+] Content of Grid Level 0

